%!PS-Adobe-3.0 EPSF-3.0
%%Title: limit_compare.eps
%%Creator: Matplotlib v3.4.2, https://matplotlib.org/
%%CreationDate: Sun Oct 31 18:52:06 2021
%%Orientation: portrait
%%BoundingBox: 6 96 606 696
%%HiResBoundingBox: 6.012000 96.012000 605.988000 695.988000
%%EndComments
%%BeginProlog
/mpldict 13 dict def
mpldict begin
/_d { bind def } bind def
/m { moveto } _d
/l { lineto } _d
/r { rlineto } _d
/c { curveto } _d
/cl { closepath } _d
/ce { closepath eofill } _d
/box {
      m
      1 index 0 r
      0 exch r
      neg 0 r
      cl
    } _d
/clipbox {
      box
      clip
      newpath
    } _d
/sc { setcachedevice } _d
%!PS-Adobe-3.0 Resource-Font
%%Creator: Converted from TrueType to Type 3 by Matplotlib.
10 dict begin
/FontName /NimbusSans-Regular def
/PaintType 0 def
/FontMatrix [0.001 0 0 0.001 0 0] def
/FontBBox [-210 -299 1032 1075] def
/FontType 3 def
/Encoding [/minus /space /quotesingle /parenleft /parenright /plus /comma /period /zero /one /two /three /nine /uni03BC /equal /greater /A /B /D /G /L /N /S /T /V /Z /bracketleft /bracketright /a /b /c /d /e /f /g /i /l /m /n /o /p /r /s /t /u /w /x /y] def
/CharStrings 49 dict dup begin
/.notdef 0 def
/minus{584 0 40 197 544 267 sc
544 267 m
40 267 l
40 197 l
544 197 l
544 267 l

ce} _d
/space{278 0 0 0 0 0 sc
ce} _d
/quotesingle{191 0 48 464 142 709 sc
48 709 m
48 598 l
75 464 l
115 464 l
142 598 l
142 709 l
48 709 l

ce} _d
/parenleft{333 0 73 -212 291 729 sc
236 729 m
136 598 73 416 73 259 c
73 101 136 -81 236 -212 c
291 -212 l
203 -69 154 99 154 259 c
154 418 203 587 291 729 c
236 729 l

ce} _d
/parenright{333 0 38 -212 256 729 sc
93 -212 m
193 -81 256 101 256 258 c
256 416 193 598 93 729 c
38 729 l
126 586 175 418 175 258 c
175 99 126 -70 38 -212 c
93 -212 l

ce} _d
/plus{584 0 50 -10 534 474 sc
534 267 m
327 267 l
327 474 l
257 474 l
257 267 l
50 267 l
50 197 l
257 197 l
257 -10 l
327 -10 l
327 197 l
534 197 l
534 267 l

ce} _d
/comma{278 0 87 -149 192 104 sc
87 104 m
87 0 l
147 0 l
147 -18 l
147 -87 134 -107 87 -109 c
87 -147 l
153 -149 192 -101 192 -16 c
192 104 l
87 104 l

ce} _d
/period{278 0 87 0 191 104 sc
191 104 m
87 104 l
87 0 l
191 0 l
191 104 l

ce} _d
/zero{556 0 43 -23 507 723 sc
275 723 m
209 723 149 693 112 644 c
66 580 43 484 43 350 c
43 106 123 -23 275 -23 c
425 -23 507 106 507 344 c
507 484 485 578 438 644 c
401 694 342 723 275 723 c

275 645 m
370 645 417 548 417 352 c
417 146 371 50 273 50 c
180 50 133 150 133 349 c
133 548 180 645 275 645 c

ce} _d
/one{556 0 102 0 347 723 sc
259 515 m
259 0 l
347 0 l
347 723 l
289 723 l
258 612 238 597 102 579 c
102 515 l
259 515 l

ce} _d
/two{556 0 34 1 511 723 sc
506 87 m
133 87 l
142 147 174 185 261 238 c
361 294 l
460 349 511 423 511 512 c
511 572 487 628 445 667 c
403 705 351 723 284 723 c
194 723 127 691 88 629 c
63 591 52 546 50 473 c
138 473 l
141 522 147 551 159 575 c
182 619 228 646 281 646 c
361 646 421 588 421 510 c
421 452 388 402 325 366 c
233 312 l
85 227 42 159 34 1 c
506 1 l
506 87 l

ce} _d
/three{556 0 32 -23 506 723 sc
221 333 m
232 333 l
269 333 l
365 333 416 288 416 201 c
416 110 361 55 270 55 c
173 55 126 104 120 210 c
32 210 l
36 152 46 114 63 82 c
100 12 169 -23 266 -23 c
412 -23 506 65 506 202 c
506 294 471 344 386 374 c
452 401 485 451 485 524 c
485 648 404 723 269 723 c
126 723 50 643 47 490 c
135 490 l
136 534 140 559 151 581 c
171 622 215 646 270 646 c
348 646 395 599 395 521 c
395 470 377 439 338 422 c
314 412 282 408 221 407 c
221 333 l

ce} _d
/nine{556 0 38 -23 509 723 sc
53 165 m
70 47 146 -23 254 -23 c
333 -23 403 15 445 80 c
489 151 509 239 509 370 c
509 492 491 569 449 633 c
410 692 348 723 270 723 c
135 723 38 622 38 482 c
38 349 128 255 256 255 c
323 255 373 279 418 334 c
417 154 361 55 260 55 c
198 55 155 95 141 165 c
53 165 l

269 646 m
351 646 413 577 413 484 c
413 395 353 333 266 333 c
181 333 128 393 128 489 c
128 580 187 646 269 646 c

ce} _d
/uni03BC{576 0 80 -218 497 524 sc
413 524 m
413 241 l
413 169 403 131 374 98 c
348 68 310 50 271 50 c
206 50 164 90 164 153 c
164 524 l
80 524 l
80 -218 l
163 -218 l
163 -4 l
188 -16 219 -23 252 -23 c
325 -23 374 5 422 73 c
422 0 l
497 0 l
497 524 l
413 524 l

ce} _d
/equal{584 0 50 111 534 353 sc
534 353 m
50 353 l
50 283 l
534 283 l
534 353 l

534 181 m
50 181 l
50 111 l
534 111 l
534 181 l

ce} _d
/greater{584 0 50 -9 539 474 sc
539 267 m
50 474 l
50 395 l
444 231 l
50 70 l
50 -9 l
539 198 l
539 267 l

ce} _d
/A{667 0 17 0 653 729 sc
474 219 m
549 0 l
653 0 l
397 729 l
277 729 l
17 0 l
116 0 l
193 219 l
474 219 l

448 297 m
216 297 l
336 629 l
448 297 l

ce} _d
/B{667 0 79 0 623 729 sc
79 0 m
408 0 l
477 0 528 19 567 61 c
603 99 623 151 623 208 c
623 296 583 349 490 385 c
557 416 591 469 591 544 c
591 598 571 644 533 678 c
494 713 445 729 375 729 c
79 729 l
79 0 l

172 415 m
172 647 l
352 647 l
404 647 433 640 458 621 c
484 601 498 571 498 531 c
498 491 484 461 458 441 c
433 422 404 415 352 415 c
172 415 l

172 82 m
172 333 l
399 333 l
481 333 530 286 530 207 c
530 129 481 82 399 82 c
172 82 l

ce} _d
/D{722 0 89 0 667 729 sc
89 0 m
370 0 l
554 0 667 138 667 365 c
667 591 555 729 370 729 c
89 729 l
89 0 l

182 82 m
182 647 l
354 647 l
498 647 574 550 574 364 c
574 179 498 82 354 82 c
182 82 l

ce} _d
/G{778 0 44 -23 709 741 sc
709 385 m
405 385 l
405 303 l
627 303 l
627 283 l
627 153 531 59 398 59 c
324 59 257 86 214 133 c
166 185 137 272 137 362 c
137 541 239 659 393 659 c
504 659 584 602 604 508 c
699 508 l
673 656 561 741 394 741 c
305 741 233 718 176 671 c
91 601 44 488 44 357 c
44 133 181 -23 378 -23 c
477 -23 555 14 627 93 c
650 -4 l
709 -4 l
709 385 l

ce} _d
/L{556 0 80 0 533 729 sc
173 729 m
80 729 l
80 0 l
533 0 l
533 82 l
173 82 l
173 729 l

ce} _d
/N{722 0 76 0 646 729 sc
646 729 m
558 729 l
558 133 l
177 729 l
76 729 l
76 0 l
164 0 l
164 591 l
541 0 l
646 0 l
646 729 l

ce} _d
/S{667 0 48 -23 621 741 sc
596 515 m
596 565 593 579 577 613 c
537 697 452 741 329 741 c
169 741 70 659 70 527 c
70 438 117 382 213 357 c
394 309 l
487 285 528 248 528 191 c
528 152 507 112 476 90 c
447 69 401 59 342 59 c
262 59 209 78 174 120 c
147 152 135 187 136 232 c
48 232 l
49 165 62 121 91 81 c
141 12 225 -23 336 -23 c
423 -23 494 -3 541 33 c
590 72 621 137 621 200 c
621 290 565 356 466 383 c
283 432 l
195 456 163 484 163 540 c
163 614 228 663 326 663 c
442 663 507 611 508 515 c
596 515 l

ce} _d
/T{611 0 21 0 593 729 sc
354 647 m
593 647 l
593 729 l
21 729 l
21 647 l
261 647 l
261 0 l
354 0 l
354 647 l

ce} _d
/V{667 0 30 0 645 729 sc
392 0 m
645 729 l
546 729 l
344 112 l
130 729 l
30 729 l
292 0 l
392 0 l

ce} _d
/Z{611 0 28 0 583 729 sc
581 729 m
56 729 l
56 647 l
466 647 l
28 82 l
28 0 l
583 0 l
583 82 l
145 82 l
581 645 l
581 729 l

ce} _d
/bracketleft{278 0 64 -212 250 729 sc
250 729 m
64 729 l
64 -212 l
250 -212 l
250 -140 l
147 -140 l
147 657 l
250 657 l
250 729 l

ce} _d
/bracketright{278 0 23 -212 209 729 sc
23 -212 m
209 -212 l
209 729 l
23 729 l
23 657 l
126 657 l
126 -140 l
23 -140 l
23 -212 l

ce} _d
/a{556 0 42 -23 535 539 sc
535 49 m
526 47 522 47 517 47 c
488 47 472 62 472 88 c
472 396 l
472 489 404 539 275 539 c
198 539 137 517 101 478 c
77 451 67 421 65 369 c
149 369 l
156 433 194 462 272 462 c
348 462 389 434 389 384 c
389 362 l
388 326 370 313 302 304 c
184 289 166 285 134 272 c
73 246 42 200 42 132 c
42 37 108 -23 214 -23 c
280 -23 333 0 392 54 c
398 0 424 -23 478 -23 c
496 -23 507 -21 535 -14 c
535 49 l

389 165 m
389 137 381 120 356 97 c
322 66 281 50 232 50 c
167 50 129 81 129 134 c
129 189 165 217 255 230 c
344 242 361 246 389 259 c
389 165 l

ce} _d
/b{556 0 54 -23 523 729 sc
54 729 m
54 0 l
129 0 l
129 67 l
169 6 222 -23 295 -23 c
433 -23 523 90 523 264 c
523 434 438 539 299 539 c
227 539 176 512 137 453 c
137 729 l
54 729 l

283 461 m
376 461 436 380 436 255 c
436 136 374 55 283 55 c
194 55 137 135 137 258 c
137 381 194 461 283 461 c

ce} _d
/c{500 0 31 -23 477 539 sc
471 348 m
467 399 456 432 436 461 c
400 510 337 539 264 539 c
122 539 31 427 31 253 c
31 84 121 -23 263 -23 c
388 -23 467 52 477 180 c
393 180 l
379 96 336 54 265 54 c
173 54 118 129 118 253 c
118 384 172 462 263 462 c
333 462 377 421 387 348 c
471 348 l

ce} _d
/d{556 0 26 -23 495 729 sc
495 729 m
412 729 l
412 458 l
377 511 321 539 251 539 c
115 539 26 430 26 263 c
26 86 112 -23 254 -23 c
326 -23 376 4 421 69 c
421 0 l
495 0 l
495 729 l

265 461 m
355 461 412 382 412 256 c
412 135 354 55 266 55 c
174 55 113 136 113 258 c
113 380 174 461 265 461 c

ce} _d
/e{556 0 40 -23 513 539 sc
513 234 m
513 314 507 362 492 401 c
458 487 378 539 280 539 c
134 539 40 428 40 255 c
40 82 130 -23 278 -23 c
398 -23 481 45 502 159 c
418 159 l
395 90 348 54 281 54 c
228 54 183 78 155 122 c
135 152 128 182 127 234 c
513 234 l

129 302 m
136 399 195 462 279 462 c
364 462 423 396 423 302 c
129 302 l

ce} _d
/f{278 0 18 0 258 732 sc
258 524 m
171 524 l
171 606 l
171 641 190 659 229 659 c
236 659 239 659 258 658 c
258 727 l
239 731 228 732 211 732 c
134 732 88 688 88 613 c
88 524 l
18 524 l
18 456 l
88 456 l
88 0 l
171 0 l
171 456 l
258 456 l
258 524 l

ce} _d
/g{556 0 35 -218 481 539 sc
404 524 m
404 448 l
362 511 316 539 250 539 c
123 539 35 421 35 253 c
35 165 56 101 101 48 c
140 2 190 -23 244 -23 c
307 -23 352 5 396 71 c
396 44 l
396 -96 357 -148 253 -148 c
182 -148 145 -120 137 -60 c
52 -60 l
60 -157 137 -218 251 -218 c
328 -218 392 -193 426 -151 c
466 -102 481 -37 481 86 c
481 524 l
404 524 l

258 462 m
346 462 396 388 396 255 c
396 128 345 54 258 54 c
172 54 122 129 122 258 c
122 386 172 462 258 462 c

ce} _d
/i{222 0 66 0 150 729 sc
150 524 m
67 524 l
67 0 l
150 0 l
150 524 l

150 729 m
66 729 l
66 624 l
150 624 l
150 729 l

ce} _d
/l{222 0 68 0 152 729 sc
152 729 m
68 729 l
68 0 l
152 0 l
152 729 l

ce} _d
/m{833 0 70 0 762 539 sc
70 524 m
70 0 l
154 0 l
154 329 l
154 405 209 466 277 466 c
339 466 374 428 374 361 c
374 0 l
458 0 l
458 329 l
458 405 513 466 581 466 c
642 466 678 427 678 361 c
678 0 l
762 0 l
762 393 l
762 487 708 539 610 539 c
540 539 498 518 449 459 c
418 515 376 539 308 539 c
238 539 191 513 147 450 c
147 524 l
70 524 l

ce} _d
/n{556 0 70 0 487 539 sc
70 524 m
70 0 l
154 0 l
154 289 l
154 396 210 466 296 466 c
362 466 404 426 404 363 c
404 0 l
487 0 l
487 396 l
487 483 422 539 321 539 c
243 539 193 509 147 436 c
147 524 l
70 524 l

ce} _d
/o{556 0 36 -23 510 539 sc
272 539 m
124 539 36 434 36 258 c
36 81 124 -23 273 -23 c
421 -23 510 82 510 254 c
510 436 424 539 272 539 c

273 462 m
367 462 423 385 423 255 c
423 131 365 54 273 54 c
180 54 123 131 123 258 c
123 385 180 462 273 462 c

ce} _d
/p{556 0 54 -218 523 539 sc
54 -218 m
138 -218 l
138 55 l
182 1 231 -23 299 -23 c
435 -23 523 86 523 253 c
523 429 437 539 298 539 c
227 539 170 507 131 445 c
131 524 l
54 524 l
54 -218 l

284 461 m
376 461 436 380 436 255 c
436 136 375 55 284 55 c
195 55 138 135 138 258 c
138 381 195 461 284 461 c

ce} _d
/r{333 0 69 0 321 539 sc
69 524 m
69 0 l
153 0 l
153 272 l
154 398 206 454 321 451 c
321 536 l
307 538 299 539 289 539 c
235 539 194 507 146 429 c
146 524 l
69 524 l

ce} _d
/s{500 0 34 -23 459 539 sc
438 378 m
437 481 369 539 248 539 c
126 539 47 476 47 379 c
47 297 89 258 213 228 c
291 209 l
349 195 372 174 372 137 c
372 87 323 54 250 54 c
205 54 167 67 146 89 c
133 104 127 119 122 156 c
34 156 l
38 35 106 -23 243 -23 c
375 -23 459 42 459 143 c
459 221 415 264 311 289 c
231 308 l
163 324 134 346 134 383 c
134 432 177 462 245 462 c
312 462 348 433 350 378 c
438 378 l

ce} _d
/t{278 0 14 -23 254 668 sc
254 524 m
168 524 l
168 668 l
85 668 l
85 524 l
14 524 l
14 456 l
85 456 l
85 60 l
85 6 121 -23 186 -23 c
208 -23 226 -21 254 -16 c
254 54 l
242 51 231 50 214 50 c
178 50 168 60 168 97 c
168 456 l
254 456 l
254 524 l

ce} _d
/u{556 0 65 -23 482 524 sc
482 0 m
482 524 l
399 524 l
399 227 l
399 120 343 50 256 50 c
190 50 148 90 148 153 c
148 524 l
65 524 l
65 120 l
65 33 130 -23 232 -23 c
309 -23 358 4 407 73 c
407 0 l
482 0 l

ce} _d
/w{722 0 6 0 708 524 sc
554 0 m
708 524 l
614 524 l
510 116 l
407 524 l
305 524 l
205 116 l
98 524 l
6 524 l
158 0 l
252 0 l
353 411 l
459 0 l
554 0 l

ce} _d
/x{500 0 17 0 473 524 sc
292 271 m
468 524 l
374 524 l
248 334 l
122 524 l
27 524 l
202 267 l
17 0 l
112 0 l
245 201 l
376 0 l
473 0 l
292 271 l

ce} _d
/y{500 0 20 -218 478 524 sc
388 524 m
243 116 l
109 524 l
20 524 l
197 -2 l
165 -85 l
151 -122 133 -136 98 -136 c
84 -136 72 -134 54 -130 c
54 -205 l
71 -214 88 -218 110 -218 c
137 -218 166 -209 188 -193 c
214 -174 229 -152 245 -110 c
478 524 l
388 524 l

ce} _d
end readonly def

/BuildGlyph {
 exch begin
 CharStrings exch
 2 copy known not {pop /.notdef} if
 true 3 1 roll get exec
 end
} _d

/BuildChar {
 1 index /Encoding get exch get
 1 index /BuildGlyph get exec
} _d

FontName currentdict end definefont pop
%!PS-Adobe-3.0 Resource-Font
%%Creator: Converted from TrueType to Type 3 by Matplotlib.
10 dict begin
/FontName /NimbusSans-BoldItalic def
/PaintType 0 def
/FontMatrix [0.001 0 0 0.001 0 0] def
/FontBBox [-144 -309 1196 1073] def
/FontType 3 def
/Encoding [/space /A /L /S /T] def
/CharStrings 6 dict dup begin
/.notdef 0 def
/space{278 0 0 0 0 0 sc
ce} _d
/A{722 0 26 0 703 729 sc
532 147 m
550 0 l
703 0 l
606 729 l
433 729 l
26 0 l
179 0 l
260 147 l
532 147 l

518 272 m
329 272 l
483 555 l
518 272 l

ce} _d
/L{611 0 80 0 606 729 sc
385 729 m
235 729 l
80 0 l
579 0 l
606 125 l
257 125 l
385 729 l

ce} _d
/S{667 0 76 -23 725 741 sc
717 507 m
723 535 725 549 725 569 c
725 677 632 741 473 741 c
376 741 300 717 243 667 c
186 618 151 543 151 472 c
151 389 201 345 320 321 c
418 301 l
509 283 538 263 538 216 c
538 148 471 105 367 105 c
276 105 224 138 224 195 c
224 200 225 209 226 218 c
80 218 l
77 198 76 188 76 174 c
76 121 96 75 132 42 c
180 -2 248 -23 345 -23 c
467 -23 560 12 618 79 c
660 126 687 199 687 265 c
687 342 632 394 530 414 c
421 436 l
327 455 300 471 300 509 c
300 573 356 613 447 613 c
532 613 579 584 579 530 c
579 525 578 516 577 507 c
717 507 l

ce} _d
/T{611 0 142 0 753 729 sc
514 604 m
726 604 l
753 729 l
169 729 l
142 604 l
364 604 l
235 0 l
385 0 l
514 604 l

ce} _d
end readonly def

/BuildGlyph {
 exch begin
 CharStrings exch
 2 copy known not {pop /.notdef} if
 true 3 1 roll get exec
 end
} _d

/BuildChar {
 1 index /Encoding get exch get
 1 index /BuildGlyph get exec
} _d

FontName currentdict end definefont pop
%!PS-Adobe-3.0 Resource-Font
%%Creator: Converted from TrueType to Type 3 by Matplotlib.
10 dict begin
/FontName /DejaVuSans def
/PaintType 0 def
/FontMatrix [0.00048828125 0 0 0.00048828125 0 0] def
/FontBBox [-2090 -948 3673 2524] def
/FontType 3 def
/Encoding [/radical] def
/CharStrings 2 dict dup begin
/.notdef 0 def
/radical{1305 0 61 -41 1305 1661 sc
1116 1661 m
1305 1661 l
1305 1565 l
1190 1565 l
596 -41 l
530 -41 l
211 842 l
86 797 l
61 877 l
344 975 l
600 266 l
1116 1661 l

ce} _d
end readonly def

/BuildGlyph {
 exch begin
 CharStrings exch
 2 copy known not {pop /.notdef} if
 true 3 1 roll get exec
 end
} _d

/BuildChar {
 1 index /Encoding get exch get
 1 index /BuildGlyph get exec
} _d

FontName currentdict end definefont pop
end
%%EndProlog
mpldict begin
6.012 96.012 translate
599.976 599.976 0 0 clipbox
gsave
0 0 m
599.976 0 l
599.976 599.976 l
0 599.976 l
cl
grestore
gsave
74.997 65.99736 m
539.9784 65.99736 l
539.9784 527.97888 l
74.997 527.97888 l
cl
1.000 setgray
fill
grestore
gsave
464.981 461.982 74.997 65.997 clipbox
74.997 527.97888 m
74.997 205.370806 l
398.733804 527.97888 l
398.733804 527.97888 l
398.733804 527.97888 l
74.997 527.97888 l
cl
1.000 0.000 0.000 setrgbcolor
fill
grestore
gsave
464.981 461.982 74.997 65.997 clipbox
135.827736 65.99736 m
135.827736 65.99736 l
539.9784 477.922178 l
539.9784 65.99736 l
539.9784 65.99736 l
135.827736 65.99736 l
cl
0.000 0.502 0.000 setrgbcolor
fill
grestore
1.500 setlinewidth
1 setlinejoin
2 setlinecap
[] 0 setdash
0.824 0.706 0.549 setrgbcolor
gsave
464.981 461.982 74.997 65.997 clipbox
74.997 82.866107 m
104.525871 101.893737 l
126.581276 112.889249 l
144.192177 119.605996 l
158.852877 125.991834 l
171.411436 129.271979 l
182.395779 133.751238 l
192.156963 137.498561 l
208.924009 145.004421 l
222.995712 154.180371 l
235.119814 169.08724 l
245.770467 178.559305 l
255.267313 199.911117 l
261.771043 226.711102 l
267.825872 238.226859 l
273.489785 260.507593 l
278.810214 286.283536 l
283.826448 306.972708 l
288.571399 335.336241 l
293.072908 366.511571 l
297.354743 400.798453 l
301.437349 436.571398 l
305.338445 472.389765 l
309.073485 499.802911 l
312.656031 516.652787 l
stroke
grestore
0 setlinecap
[5.55 2.4] 0 setdash
0.000 setgray
gsave
464.981 461.982 74.997 65.997 clipbox
74.997 81.502494 m
104.525871 98.914965 l
126.581276 109.679586 l
144.192177 116.549839 l
158.852877 123.10293 l
171.411436 125.789578 l
182.395779 129.339524 l
192.156963 133.192642 l
208.924009 138.22816 l
222.995712 145.90206 l
235.119814 158.286527 l
245.770467 166.05271 l
255.267313 185.222747 l
261.771043 220.033596 l
267.825872 224.500806 l
273.489785 245.029114 l
278.810214 269.379047 l
283.826448 286.654967 l
288.571399 310.540673 l
293.072908 336.590131 l
297.354743 371.444074 l
301.437349 403.390319 l
305.338445 433.271313 l
309.073485 446.407522 l
312.656031 461.448204 l
stroke
grestore
2 setlinecap
[] 0 setdash
1.000 0.000 0.000 setrgbcolor
gsave
464.981 461.982 74.997 65.997 clipbox
74.997 205.370806 m
398.733804 527.97888 l
stroke
grestore
0.000 0.502 0.000 setrgbcolor
gsave
464.981 461.982 74.997 65.997 clipbox
135.827736 65.99736 m
539.9784 477.922178 l
stroke
grestore
1.000 setlinewidth
0 setlinejoin
0.000 setgray
gsave
74.997 65.99736 m
74.997 527.97888 l
stroke
grestore
gsave
539.9784 65.99736 m
539.9784 527.97888 l
stroke
grestore
gsave
74.997 65.99736 m
539.9784 65.99736 l
stroke
grestore
gsave
74.997 527.97888 m
539.9784 527.97888 l
stroke
grestore
0.800 setlinewidth
1 setlinejoin
0 setlinecap
gsave
/o {
gsave
newpath
translate
0.8 setlinewidth
1 setlinejoin

0 setlinecap

0 0 m
0 5 l

gsave
0.000 setgray
fill
grestore
stroke
grestore
} bind def
135.828 65.9974 o
grestore
gsave
/o {
gsave
newpath
translate
0.8 setlinewidth
1 setlinejoin

0 setlinecap

0 0 m
0 -5 l

gsave
0.000 setgray
fill
grestore
stroke
grestore
} bind def
135.828 527.979 o
grestore
gsave
123.327736 50.606735 translate
0.000000 rotate
/NimbusSans-Regular 16.0 selectfont
0.000000 0.240188 moveto
/one glyphshow
8.895996 0.240188 moveto
/zero glyphshow
/NimbusSans-Regular 11.2 selectfont
17.929542 5.742188 moveto
/one glyphshow
grestore
gsave
/o {
gsave
newpath
translate
0.8 setlinewidth
1 setlinejoin

0 setlinecap

0 0 m
0 5 l

gsave
0.000 setgray
fill
grestore
stroke
grestore
} bind def
337.903 65.9974 o
grestore
gsave
/o {
gsave
newpath
translate
0.8 setlinewidth
1 setlinejoin

0 setlinecap

0 0 m
0 -5 l

gsave
0.000 setgray
fill
grestore
stroke
grestore
} bind def
337.903 527.979 o
grestore
gsave
325.403068 50.606735 translate
0.000000 rotate
/NimbusSans-Regular 16.0 selectfont
0.000000 0.240188 moveto
/one glyphshow
8.895996 0.240188 moveto
/zero glyphshow
/NimbusSans-Regular 11.2 selectfont
17.929542 5.742188 moveto
/two glyphshow
grestore
gsave
/o {
gsave
newpath
translate
0.8 setlinewidth
1 setlinejoin

0 setlinecap

0 0 m
0 5 l

gsave
0.000 setgray
fill
grestore
stroke
grestore
} bind def
539.978 65.9974 o
grestore
gsave
/o {
gsave
newpath
translate
0.8 setlinewidth
1 setlinejoin

0 setlinecap

0 0 m
0 -5 l

gsave
0.000 setgray
fill
grestore
stroke
grestore
} bind def
539.978 527.979 o
grestore
gsave
527.478400 50.606735 translate
0.000000 rotate
/NimbusSans-Regular 16.0 selectfont
0.000000 0.240188 moveto
/one glyphshow
8.895996 0.240188 moveto
/zero glyphshow
/NimbusSans-Regular 11.2 selectfont
17.929542 5.742188 moveto
/three glyphshow
grestore
0.600 setlinewidth
gsave
/o {
gsave
newpath
translate
0.6 setlinewidth
1 setlinejoin

0 setlinecap

0 0 m
0 3 l

gsave
0.000 setgray
fill
grestore
stroke
grestore
} bind def
74.997 65.9974 o
grestore
gsave
/o {
gsave
newpath
translate
0.6 setlinewidth
1 setlinejoin

0 setlinecap

0 0 m
0 -3 l

gsave
0.000 setgray
fill
grestore
stroke
grestore
} bind def
74.997 527.979 o
grestore
gsave
/o {
gsave
newpath
translate
0.6 setlinewidth
1 setlinejoin

0 setlinecap

0 0 m
0 3 l

gsave
0.000 setgray
fill
grestore
stroke
grestore
} bind def
90.9976 65.9974 o
grestore
gsave
/o {
gsave
newpath
translate
0.6 setlinewidth
1 setlinejoin

0 setlinecap

0 0 m
0 -3 l

gsave
0.000 setgray
fill
grestore
stroke
grestore
} bind def
90.9976 527.979 o
grestore
gsave
/o {
gsave
newpath
translate
0.6 setlinewidth
1 setlinejoin

0 setlinecap

0 0 m
0 3 l

gsave
0.000 setgray
fill
grestore
stroke
grestore
} bind def
104.526 65.9974 o
grestore
gsave
/o {
gsave
newpath
translate
0.6 setlinewidth
1 setlinejoin

0 setlinecap

0 0 m
0 -3 l

gsave
0.000 setgray
fill
grestore
stroke
grestore
} bind def
104.526 527.979 o
grestore
gsave
/o {
gsave
newpath
translate
0.6 setlinewidth
1 setlinejoin

0 setlinecap

0 0 m
0 3 l

gsave
0.000 setgray
fill
grestore
stroke
grestore
} bind def
116.245 65.9974 o
grestore
gsave
/o {
gsave
newpath
translate
0.6 setlinewidth
1 setlinejoin

0 setlinecap

0 0 m
0 -3 l

gsave
0.000 setgray
fill
grestore
stroke
grestore
} bind def
116.245 527.979 o
grestore
gsave
/o {
gsave
newpath
translate
0.6 setlinewidth
1 setlinejoin

0 setlinecap

0 0 m
0 3 l

gsave
0.000 setgray
fill
grestore
stroke
grestore
} bind def
126.581 65.9974 o
grestore
gsave
/o {
gsave
newpath
translate
0.6 setlinewidth
1 setlinejoin

0 setlinecap

0 0 m
0 -3 l

gsave
0.000 setgray
fill
grestore
stroke
grestore
} bind def
126.581 527.979 o
grestore
gsave
/o {
gsave
newpath
translate
0.6 setlinewidth
1 setlinejoin

0 setlinecap

0 0 m
0 3 l

gsave
0.000 setgray
fill
grestore
stroke
grestore
} bind def
196.658 65.9974 o
grestore
gsave
/o {
gsave
newpath
translate
0.6 setlinewidth
1 setlinejoin

0 setlinecap

0 0 m
0 -3 l

gsave
0.000 setgray
fill
grestore
stroke
grestore
} bind def
196.658 527.979 o
grestore
gsave
/o {
gsave
newpath
translate
0.6 setlinewidth
1 setlinejoin

0 setlinecap

0 0 m
0 3 l

gsave
0.000 setgray
fill
grestore
stroke
grestore
} bind def
232.242 65.9974 o
grestore
gsave
/o {
gsave
newpath
translate
0.6 setlinewidth
1 setlinejoin

0 setlinecap

0 0 m
0 -3 l

gsave
0.000 setgray
fill
grestore
stroke
grestore
} bind def
232.242 527.979 o
grestore
gsave
/o {
gsave
newpath
translate
0.6 setlinewidth
1 setlinejoin

0 setlinecap

0 0 m
0 3 l

gsave
0.000 setgray
fill
grestore
stroke
grestore
} bind def
257.489 65.9974 o
grestore
gsave
/o {
gsave
newpath
translate
0.6 setlinewidth
1 setlinejoin

0 setlinecap

0 0 m
0 -3 l

gsave
0.000 setgray
fill
grestore
stroke
grestore
} bind def
257.489 527.979 o
grestore
gsave
/o {
gsave
newpath
translate
0.6 setlinewidth
1 setlinejoin

0 setlinecap

0 0 m
0 3 l

gsave
0.000 setgray
fill
grestore
stroke
grestore
} bind def
277.072 65.9974 o
grestore
gsave
/o {
gsave
newpath
translate
0.6 setlinewidth
1 setlinejoin

0 setlinecap

0 0 m
0 -3 l

gsave
0.000 setgray
fill
grestore
stroke
grestore
} bind def
277.072 527.979 o
grestore
gsave
/o {
gsave
newpath
translate
0.6 setlinewidth
1 setlinejoin

0 setlinecap

0 0 m
0 3 l

gsave
0.000 setgray
fill
grestore
stroke
grestore
} bind def
293.073 65.9974 o
grestore
gsave
/o {
gsave
newpath
translate
0.6 setlinewidth
1 setlinejoin

0 setlinecap

0 0 m
0 -3 l

gsave
0.000 setgray
fill
grestore
stroke
grestore
} bind def
293.073 527.979 o
grestore
gsave
/o {
gsave
newpath
translate
0.6 setlinewidth
1 setlinejoin

0 setlinecap

0 0 m
0 3 l

gsave
0.000 setgray
fill
grestore
stroke
grestore
} bind def
306.601 65.9974 o
grestore
gsave
/o {
gsave
newpath
translate
0.6 setlinewidth
1 setlinejoin

0 setlinecap

0 0 m
0 -3 l

gsave
0.000 setgray
fill
grestore
stroke
grestore
} bind def
306.601 527.979 o
grestore
gsave
/o {
gsave
newpath
translate
0.6 setlinewidth
1 setlinejoin

0 setlinecap

0 0 m
0 3 l

gsave
0.000 setgray
fill
grestore
stroke
grestore
} bind def
318.32 65.9974 o
grestore
gsave
/o {
gsave
newpath
translate
0.6 setlinewidth
1 setlinejoin

0 setlinecap

0 0 m
0 -3 l

gsave
0.000 setgray
fill
grestore
stroke
grestore
} bind def
318.32 527.979 o
grestore
gsave
/o {
gsave
newpath
translate
0.6 setlinewidth
1 setlinejoin

0 setlinecap

0 0 m
0 3 l

gsave
0.000 setgray
fill
grestore
stroke
grestore
} bind def
328.657 65.9974 o
grestore
gsave
/o {
gsave
newpath
translate
0.6 setlinewidth
1 setlinejoin

0 setlinecap

0 0 m
0 -3 l

gsave
0.000 setgray
fill
grestore
stroke
grestore
} bind def
328.657 527.979 o
grestore
gsave
/o {
gsave
newpath
translate
0.6 setlinewidth
1 setlinejoin

0 setlinecap

0 0 m
0 3 l

gsave
0.000 setgray
fill
grestore
stroke
grestore
} bind def
398.734 65.9974 o
grestore
gsave
/o {
gsave
newpath
translate
0.6 setlinewidth
1 setlinejoin

0 setlinecap

0 0 m
0 -3 l

gsave
0.000 setgray
fill
grestore
stroke
grestore
} bind def
398.734 527.979 o
grestore
gsave
/o {
gsave
newpath
translate
0.6 setlinewidth
1 setlinejoin

0 setlinecap

0 0 m
0 3 l

gsave
0.000 setgray
fill
grestore
stroke
grestore
} bind def
434.318 65.9974 o
grestore
gsave
/o {
gsave
newpath
translate
0.6 setlinewidth
1 setlinejoin

0 setlinecap

0 0 m
0 -3 l

gsave
0.000 setgray
fill
grestore
stroke
grestore
} bind def
434.318 527.979 o
grestore
gsave
/o {
gsave
newpath
translate
0.6 setlinewidth
1 setlinejoin

0 setlinecap

0 0 m
0 3 l

gsave
0.000 setgray
fill
grestore
stroke
grestore
} bind def
459.565 65.9974 o
grestore
gsave
/o {
gsave
newpath
translate
0.6 setlinewidth
1 setlinejoin

0 setlinecap

0 0 m
0 -3 l

gsave
0.000 setgray
fill
grestore
stroke
grestore
} bind def
459.565 527.979 o
grestore
gsave
/o {
gsave
newpath
translate
0.6 setlinewidth
1 setlinejoin

0 setlinecap

0 0 m
0 3 l

gsave
0.000 setgray
fill
grestore
stroke
grestore
} bind def
479.148 65.9974 o
grestore
gsave
/o {
gsave
newpath
translate
0.6 setlinewidth
1 setlinejoin

0 setlinecap

0 0 m
0 -3 l

gsave
0.000 setgray
fill
grestore
stroke
grestore
} bind def
479.148 527.979 o
grestore
gsave
/o {
gsave
newpath
translate
0.6 setlinewidth
1 setlinejoin

0 setlinecap

0 0 m
0 3 l

gsave
0.000 setgray
fill
grestore
stroke
grestore
} bind def
495.148 65.9974 o
grestore
gsave
/o {
gsave
newpath
translate
0.6 setlinewidth
1 setlinejoin

0 setlinecap

0 0 m
0 -3 l

gsave
0.000 setgray
fill
grestore
stroke
grestore
} bind def
495.148 527.979 o
grestore
gsave
/o {
gsave
newpath
translate
0.6 setlinewidth
1 setlinejoin

0 setlinecap

0 0 m
0 3 l

gsave
0.000 setgray
fill
grestore
stroke
grestore
} bind def
508.677 65.9974 o
grestore
gsave
/o {
gsave
newpath
translate
0.6 setlinewidth
1 setlinejoin

0 setlinecap

0 0 m
0 -3 l

gsave
0.000 setgray
fill
grestore
stroke
grestore
} bind def
508.677 527.979 o
grestore
gsave
/o {
gsave
newpath
translate
0.6 setlinewidth
1 setlinejoin

0 setlinecap

0 0 m
0 3 l

gsave
0.000 setgray
fill
grestore
stroke
grestore
} bind def
520.395 65.9974 o
grestore
gsave
/o {
gsave
newpath
translate
0.6 setlinewidth
1 setlinejoin

0 setlinecap

0 0 m
0 -3 l

gsave
0.000 setgray
fill
grestore
stroke
grestore
} bind def
520.395 527.979 o
grestore
gsave
/o {
gsave
newpath
translate
0.6 setlinewidth
1 setlinejoin

0 setlinecap

0 0 m
0 3 l

gsave
0.000 setgray
fill
grestore
stroke
grestore
} bind def
530.732 65.9974 o
grestore
gsave
/o {
gsave
newpath
translate
0.6 setlinewidth
1 setlinejoin

0 setlinecap

0 0 m
0 -3 l

gsave
0.000 setgray
fill
grestore
stroke
grestore
} bind def
530.732 527.979 o
grestore
/NimbusSans-Regular 16.000 selectfont
gsave

266.386137 31.137985 translate
0.000000 rotate
0.000000 0 m /m glyphshow
13.328003 0 m /parenleft glyphshow
18.655991 0 m /Z glyphshow
28.431992 0 m /quotesingle glyphshow
31.487991 0 m /parenright glyphshow
36.815979 0 m /space glyphshow
41.263977 0 m /bracketleft glyphshow
45.711975 0 m /G glyphshow
58.159973 0 m /e glyphshow
67.055969 0 m /V glyphshow
77.727966 0 m /bracketright glyphshow
grestore
0.800 setlinewidth
gsave
/o {
gsave
newpath
translate
0.8 setlinewidth
1 setlinejoin

0 setlinecap

0 0 m
5 0 l

gsave
0.000 setgray
fill
grestore
stroke
grestore
} bind def
74.997 209.959 o
grestore
gsave
/o {
gsave
newpath
translate
0.8 setlinewidth
1 setlinejoin

0 setlinecap

-0 0 m
-5 0 l

gsave
0.000 setgray
fill
grestore
stroke
grestore
} bind def
539.978 209.959 o
grestore
gsave
39.497000 204.013593 translate
0.000000 rotate
/NimbusSans-Regular 16.0 selectfont
0.000000 0.240188 moveto
/one glyphshow
8.895996 0.240188 moveto
/zero glyphshow
/NimbusSans-Regular 11.2 selectfont
17.929542 5.742188 moveto
/minus glyphshow
24.470338 5.742188 moveto
/two glyphshow
grestore
gsave
/o {
gsave
newpath
translate
0.8 setlinewidth
1 setlinejoin

0 setlinecap

0 0 m
5 0 l

gsave
0.000 setgray
fill
grestore
stroke
grestore
} bind def
74.997 415.921 o
grestore
gsave
/o {
gsave
newpath
translate
0.8 setlinewidth
1 setlinejoin

0 setlinecap

-0 0 m
-5 0 l

gsave
0.000 setgray
fill
grestore
stroke
grestore
} bind def
539.978 415.921 o
grestore
gsave
39.497000 409.976002 translate
0.000000 rotate
/NimbusSans-Regular 16.0 selectfont
0.000000 0.240188 moveto
/one glyphshow
8.895996 0.240188 moveto
/zero glyphshow
/NimbusSans-Regular 11.2 selectfont
17.929542 5.742188 moveto
/minus glyphshow
24.470338 5.742188 moveto
/one glyphshow
grestore
0.600 setlinewidth
gsave
/o {
gsave
newpath
translate
0.6 setlinewidth
1 setlinejoin

0 setlinecap

0 0 m
3 0 l

gsave
0.000 setgray
fill
grestore
stroke
grestore
} bind def
74.997 65.9974 o
grestore
gsave
/o {
gsave
newpath
translate
0.6 setlinewidth
1 setlinejoin

0 setlinecap

-0 0 m
-3 0 l

gsave
0.000 setgray
fill
grestore
stroke
grestore
} bind def
539.978 65.9974 o
grestore
gsave
/o {
gsave
newpath
translate
0.6 setlinewidth
1 setlinejoin

0 setlinecap

0 0 m
3 0 l

gsave
0.000 setgray
fill
grestore
stroke
grestore
} bind def
74.997 102.266 o
grestore
gsave
/o {
gsave
newpath
translate
0.6 setlinewidth
1 setlinejoin

0 setlinecap

-0 0 m
-3 0 l

gsave
0.000 setgray
fill
grestore
stroke
grestore
} bind def
539.978 102.266 o
grestore
gsave
/o {
gsave
newpath
translate
0.6 setlinewidth
1 setlinejoin

0 setlinecap

0 0 m
3 0 l

gsave
0.000 setgray
fill
grestore
stroke
grestore
} bind def
74.997 127.998 o
grestore
gsave
/o {
gsave
newpath
translate
0.6 setlinewidth
1 setlinejoin

0 setlinecap

-0 0 m
-3 0 l

gsave
0.000 setgray
fill
grestore
stroke
grestore
} bind def
539.978 127.998 o
grestore
gsave
/o {
gsave
newpath
translate
0.6 setlinewidth
1 setlinejoin

0 setlinecap

0 0 m
3 0 l

gsave
0.000 setgray
fill
grestore
stroke
grestore
} bind def
74.997 147.958 o
grestore
gsave
/o {
gsave
newpath
translate
0.6 setlinewidth
1 setlinejoin

0 setlinecap

-0 0 m
-3 0 l

gsave
0.000 setgray
fill
grestore
stroke
grestore
} bind def
539.978 147.958 o
grestore
gsave
/o {
gsave
newpath
translate
0.6 setlinewidth
1 setlinejoin

0 setlinecap

0 0 m
3 0 l

gsave
0.000 setgray
fill
grestore
stroke
grestore
} bind def
74.997 164.266 o
grestore
gsave
/o {
gsave
newpath
translate
0.6 setlinewidth
1 setlinejoin

0 setlinecap

-0 0 m
-3 0 l

gsave
0.000 setgray
fill
grestore
stroke
grestore
} bind def
539.978 164.266 o
grestore
gsave
/o {
gsave
newpath
translate
0.6 setlinewidth
1 setlinejoin

0 setlinecap

0 0 m
3 0 l

gsave
0.000 setgray
fill
grestore
stroke
grestore
} bind def
74.997 178.055 o
grestore
gsave
/o {
gsave
newpath
translate
0.6 setlinewidth
1 setlinejoin

0 setlinecap

-0 0 m
-3 0 l

gsave
0.000 setgray
fill
grestore
stroke
grestore
} bind def
539.978 178.055 o
grestore
gsave
/o {
gsave
newpath
translate
0.6 setlinewidth
1 setlinejoin

0 setlinecap

0 0 m
3 0 l

gsave
0.000 setgray
fill
grestore
stroke
grestore
} bind def
74.997 189.999 o
grestore
gsave
/o {
gsave
newpath
translate
0.6 setlinewidth
1 setlinejoin

0 setlinecap

-0 0 m
-3 0 l

gsave
0.000 setgray
fill
grestore
stroke
grestore
} bind def
539.978 189.999 o
grestore
gsave
/o {
gsave
newpath
translate
0.6 setlinewidth
1 setlinejoin

0 setlinecap

0 0 m
3 0 l

gsave
0.000 setgray
fill
grestore
stroke
grestore
} bind def
74.997 200.535 o
grestore
gsave
/o {
gsave
newpath
translate
0.6 setlinewidth
1 setlinejoin

0 setlinecap

-0 0 m
-3 0 l

gsave
0.000 setgray
fill
grestore
stroke
grestore
} bind def
539.978 200.535 o
grestore
gsave
/o {
gsave
newpath
translate
0.6 setlinewidth
1 setlinejoin

0 setlinecap

0 0 m
3 0 l

gsave
0.000 setgray
fill
grestore
stroke
grestore
} bind def
74.997 271.96 o
grestore
gsave
/o {
gsave
newpath
translate
0.6 setlinewidth
1 setlinejoin

0 setlinecap

-0 0 m
-3 0 l

gsave
0.000 setgray
fill
grestore
stroke
grestore
} bind def
539.978 271.96 o
grestore
gsave
/o {
gsave
newpath
translate
0.6 setlinewidth
1 setlinejoin

0 setlinecap

0 0 m
3 0 l

gsave
0.000 setgray
fill
grestore
stroke
grestore
} bind def
74.997 308.228 o
grestore
gsave
/o {
gsave
newpath
translate
0.6 setlinewidth
1 setlinejoin

0 setlinecap

-0 0 m
-3 0 l

gsave
0.000 setgray
fill
grestore
stroke
grestore
} bind def
539.978 308.228 o
grestore
gsave
/o {
gsave
newpath
translate
0.6 setlinewidth
1 setlinejoin

0 setlinecap

0 0 m
3 0 l

gsave
0.000 setgray
fill
grestore
stroke
grestore
} bind def
74.997 333.961 o
grestore
gsave
/o {
gsave
newpath
translate
0.6 setlinewidth
1 setlinejoin

0 setlinecap

-0 0 m
-3 0 l

gsave
0.000 setgray
fill
grestore
stroke
grestore
} bind def
539.978 333.961 o
grestore
gsave
/o {
gsave
newpath
translate
0.6 setlinewidth
1 setlinejoin

0 setlinecap

0 0 m
3 0 l

gsave
0.000 setgray
fill
grestore
stroke
grestore
} bind def
74.997 353.92 o
grestore
gsave
/o {
gsave
newpath
translate
0.6 setlinewidth
1 setlinejoin

0 setlinecap

-0 0 m
-3 0 l

gsave
0.000 setgray
fill
grestore
stroke
grestore
} bind def
539.978 353.92 o
grestore
gsave
/o {
gsave
newpath
translate
0.6 setlinewidth
1 setlinejoin

0 setlinecap

0 0 m
3 0 l

gsave
0.000 setgray
fill
grestore
stroke
grestore
} bind def
74.997 370.229 o
grestore
gsave
/o {
gsave
newpath
translate
0.6 setlinewidth
1 setlinejoin

0 setlinecap

-0 0 m
-3 0 l

gsave
0.000 setgray
fill
grestore
stroke
grestore
} bind def
539.978 370.229 o
grestore
gsave
/o {
gsave
newpath
translate
0.6 setlinewidth
1 setlinejoin

0 setlinecap

0 0 m
3 0 l

gsave
0.000 setgray
fill
grestore
stroke
grestore
} bind def
74.997 384.017 o
grestore
gsave
/o {
gsave
newpath
translate
0.6 setlinewidth
1 setlinejoin

0 setlinecap

-0 0 m
-3 0 l

gsave
0.000 setgray
fill
grestore
stroke
grestore
} bind def
539.978 384.017 o
grestore
gsave
/o {
gsave
newpath
translate
0.6 setlinewidth
1 setlinejoin

0 setlinecap

0 0 m
3 0 l

gsave
0.000 setgray
fill
grestore
stroke
grestore
} bind def
74.997 395.961 o
grestore
gsave
/o {
gsave
newpath
translate
0.6 setlinewidth
1 setlinejoin

0 setlinecap

-0 0 m
-3 0 l

gsave
0.000 setgray
fill
grestore
stroke
grestore
} bind def
539.978 395.961 o
grestore
gsave
/o {
gsave
newpath
translate
0.6 setlinewidth
1 setlinejoin

0 setlinecap

0 0 m
3 0 l

gsave
0.000 setgray
fill
grestore
stroke
grestore
} bind def
74.997 406.497 o
grestore
gsave
/o {
gsave
newpath
translate
0.6 setlinewidth
1 setlinejoin

0 setlinecap

-0 0 m
-3 0 l

gsave
0.000 setgray
fill
grestore
stroke
grestore
} bind def
539.978 406.497 o
grestore
gsave
/o {
gsave
newpath
translate
0.6 setlinewidth
1 setlinejoin

0 setlinecap

0 0 m
3 0 l

gsave
0.000 setgray
fill
grestore
stroke
grestore
} bind def
74.997 477.922 o
grestore
gsave
/o {
gsave
newpath
translate
0.6 setlinewidth
1 setlinejoin

0 setlinecap

-0 0 m
-3 0 l

gsave
0.000 setgray
fill
grestore
stroke
grestore
} bind def
539.978 477.922 o
grestore
gsave
/o {
gsave
newpath
translate
0.6 setlinewidth
1 setlinejoin

0 setlinecap

0 0 m
3 0 l

gsave
0.000 setgray
fill
grestore
stroke
grestore
} bind def
74.997 514.19 o
grestore
gsave
/o {
gsave
newpath
translate
0.6 setlinewidth
1 setlinejoin

0 setlinecap

-0 0 m
-3 0 l

gsave
0.000 setgray
fill
grestore
stroke
grestore
} bind def
539.978 514.19 o
grestore
gsave

32.012625 292.542807 translate
90.000000 rotate
0.000000 0 m /g glyphshow
grestore
0.255 0.412 0.882 setrgbcolor
gsave
319.508515 317.518523 translate
45.000000 rotate
/NimbusSans-Regular 22.0 selectfont
0.000000 0.968750 moveto
/b glyphshow
15.897195 0.968750 moveto
/minus glyphshow
36.075604 0.968750 moveto
/greater glyphshow
52.588812 0.968750 moveto
/s glyphshow
63.588812 0.968750 moveto
/uni03BC glyphshow
/NimbusSans-Regular 15.399999999999999 selectfont
79.015581 8.534000 moveto
/plus glyphshow
/NimbusSans-Regular 22.0 selectfont
91.115202 0.968750 moveto
/uni03BC glyphshow
/NimbusSans-Regular 15.399999999999999 selectfont
106.541971 8.534000 moveto
/minus glyphshow
/NimbusSans-Regular 22.0 selectfont
118.641591 0.968750 moveto
/space glyphshow
124.757589 0.968750 moveto
/a glyphshow
136.989583 0.968750 moveto
/n glyphshow
149.221578 0.968750 moveto
/o glyphshow
161.453572 0.968750 moveto
/m glyphshow
179.779576 0.968750 moveto
/a glyphshow
192.011571 0.968750 moveto
/l glyphshow
196.895574 0.968750 moveto
/y glyphshow
207.895574 0.968750 moveto
/space glyphshow
grestore
/NimbusSans-Regular 22.000 selectfont
gsave

336.647016 300.380023 translate
45.000000 rotate
0.000000 0 m /space glyphshow
6.115997 0 m /e glyphshow
18.347992 0 m /x glyphshow
29.347992 0 m /p glyphshow
41.579987 0 m /l glyphshow
46.463989 0 m /a glyphshow
58.695984 0 m /n glyphshow
70.927979 0 m /a glyphshow
83.159973 0 m /t glyphshow
89.275970 0 m /i glyphshow
94.159973 0 m /o glyphshow
106.391968 0 m /n glyphshow
118.623962 0 m /space glyphshow
124.739960 0 m /a glyphshow
136.971954 0 m /l glyphshow
141.855957 0 m /l glyphshow
146.739960 0 m /o glyphshow
158.971954 0 m /w glyphshow
174.855957 0 m /e glyphshow
187.087952 0 m /d glyphshow
grestore
0.000 setgray
/NimbusSans-BoldItalic 17.000 selectfont
gsave

98.246070 492.301679 translate
0.000000 rotate
0.000000 0 m /A glyphshow
12.273987 0 m /T glyphshow
22.660980 0 m /L glyphshow
33.047974 0 m /A glyphshow
45.321960 0 m /S glyphshow
56.660950 0 m /space glyphshow
grestore
/NimbusSans-Regular 17.000 selectfont
gsave

159.621070 492.301679 translate
0.000000 rotate
0.000000 0 m /i glyphshow
3.773987 0 m /n glyphshow
13.225967 0 m /t glyphshow
17.951965 0 m /e glyphshow
27.403946 0 m /r glyphshow
33.064941 0 m /n glyphshow
42.516922 0 m /a glyphshow
51.968903 0 m /l glyphshow
grestore
gsave
98.246070 474.582929 translate
0.000000 rotate
/DejaVuSans 17.0 selectfont
0.000000 0.198750 moveto
/radical glyphshow
/NimbusSans-Regular 17.0 selectfont
12.957520 0.593750 moveto
/s glyphshow
26.414700 0.198750 moveto
/equal glyphshow
39.174890 0.198750 moveto
/space glyphshow
43.900888 0.198750 moveto
/one glyphshow
53.352869 0.198750 moveto
/three glyphshow
62.804849 0.198750 moveto
/space glyphshow
67.530847 0.198750 moveto
/T glyphshow
77.917841 0.198750 moveto
/e glyphshow
87.369821 0.198750 moveto
/V glyphshow
98.708810 0.198750 moveto
/comma glyphshow
103.434808 0.198750 moveto
/space glyphshow
108.160806 0.198750 moveto
/one glyphshow
117.612787 0.198750 moveto
/three glyphshow
127.064767 0.198750 moveto
/nine glyphshow
141.237028 0.198750 moveto
/f glyphshow
145.963026 0.198750 moveto
/b glyphshow
/NimbusSans-Regular 11.899999999999999 selectfont
155.561153 6.044625 moveto
/minus glyphshow
162.510749 6.044625 moveto
/one glyphshow
10.83251953125 12.875 12.749984741210938 1.0625 rectfill
grestore
0.500 setlinewidth
0 setlinejoin
gsave
316.656525 73.99736 m
528.7784 73.99736 l
530.911733 73.99736 531.9784 75.064027 531.9784 77.19736 c
531.9784 170.09736 l
531.9784 172.230693 530.911733 173.29736 528.7784 173.29736 c
316.656525 173.29736 l
314.523192 173.29736 313.456525 172.230693 313.456525 170.09736 c
313.456525 77.19736 l
313.456525 75.064027 314.523192 73.99736 316.656525 73.99736 c
cl
gsave
1.000 setgray
fill
grestore
stroke
grestore
1.500 setlinewidth
1 setlinejoin
2 setlinecap
0.824 0.706 0.549 setrgbcolor
gsave
319.856525 160.419235 m
351.856525 160.419235 l
stroke
grestore
0.000 setgray
/NimbusSans-Regular 16.000 selectfont
gsave

364.656525 154.819235 translate
0.000000 rotate
0.000000 0 m /A glyphshow
10.671997 0 m /T glyphshow
20.447998 0 m /L glyphshow
29.343994 0 m /A glyphshow
40.015991 0 m /S glyphshow
50.687988 0 m /space glyphshow
55.135986 0 m /e glyphshow
64.031982 0 m /x glyphshow
72.031982 0 m /p glyphshow
80.927979 0 m /period glyphshow
85.375977 0 m /space glyphshow
89.823975 0 m /parenleft glyphshow
95.151962 0 m /n glyphshow
104.047958 0 m /o glyphshow
112.943954 0 m /space glyphshow
117.391953 0 m /D glyphshow
128.943954 0 m /N glyphshow
140.495956 0 m /N glyphshow
152.047958 0 m /parenright glyphshow
grestore
0 setlinecap
[5.55 2.4] 0 setdash
gsave
319.856525 136.856735 m
351.856525 136.856735 l
stroke
grestore
gsave

364.656525 131.256735 translate
0.000000 rotate
0.000000 0 m /A glyphshow
10.671997 0 m /T glyphshow
20.447998 0 m /L glyphshow
29.343994 0 m /A glyphshow
40.015991 0 m /S glyphshow
50.687988 0 m /space glyphshow
55.135986 0 m /e glyphshow
64.031982 0 m /x glyphshow
72.031982 0 m /p glyphshow
80.927979 0 m /period glyphshow
85.375977 0 m /space glyphshow
89.823975 0 m /parenleft glyphshow
95.151962 0 m /c glyphshow
103.151962 0 m /u glyphshow
112.047958 0 m /t glyphshow
116.495956 0 m /space glyphshow
120.943954 0 m /D glyphshow
132.495956 0 m /N glyphshow
144.047958 0 m /N glyphshow
155.599960 0 m /parenright glyphshow
grestore
2 setlinecap
[] 0 setdash
1.000 0.000 0.000 setrgbcolor
gsave
319.856525 113.481735 m
351.856525 113.481735 l
stroke
grestore
0.000 setgray
gsave

364.656525 107.881735 translate
0.000000 rotate
0.000000 0 m /N glyphshow
11.552002 0 m /e glyphshow
20.447998 0 m /u glyphshow
29.343994 0 m /t glyphshow
33.791992 0 m /r glyphshow
39.119980 0 m /i glyphshow
42.671967 0 m /n glyphshow
51.567963 0 m /o glyphshow
60.463959 0 m /space glyphshow
64.911957 0 m /T glyphshow
74.687958 0 m /r glyphshow
80.015945 0 m /i glyphshow
83.567932 0 m /d glyphshow
92.463928 0 m /e glyphshow
101.359924 0 m /n glyphshow
110.255920 0 m /t glyphshow
grestore
0.000 0.502 0.000 setrgbcolor
gsave
319.856525 89.99736 m
351.856525 89.99736 l
stroke
grestore
0.000 setgray
gsave
364.656525 84.397360 translate
0.000000 rotate
/NimbusSans-Regular 16.0 selectfont
0.000000 0.109375 moveto
/B glyphshow
/NimbusSans-Regular 11.2 selectfont
10.809547 -2.248625 moveto
/s glyphshow
/NimbusSans-Regular 16.0 selectfont
16.802547 0.109375 moveto
/space glyphshow
21.250545 0.109375 moveto
/m glyphshow
34.578548 0.109375 moveto
/i glyphshow
38.130535 0.109375 moveto
/x glyphshow
46.130535 0.109375 moveto
/i glyphshow
49.682521 0.109375 moveto
/n glyphshow
58.578518 0.109375 moveto
/g glyphshow
grestore

end
showpage
