job_m_019_10bins_auto_sys,0.8537824153900146,0.5983973145484924,0.4149681627750397,0.29900750517845154,0.2227240949869156,0.0066922454237247605,0.005418420770258229,0.004241024819411581,0.0033507931993936643,0.002692839743448947
job_m_019_10bins_sys,0.8541042804718018,0.5989122986793518,0.41542184352874756,0.29933443665504456,0.22296760976314545,0.00669363644453426,0.005421379182267614,0.004244267760537288,0.003353483528340878,0.002695038850423786
job_m_019_20bins_auto_sys,0.8482924699783325,0.5944177508354187,0.4121631979942322,0.2969864010810852,0.22121860086917877,0.006668446832305547,0.005395499344275267,0.004220935211986554,0.003334137681068796,0.002679229599953063
job_m_019_20bins_sys,0.8481329679489136,0.594288170337677,0.4120640456676483,0.2969149351119995,0.22116537392139435,0.006667753348512013,0.005394751193741397,0.004220223820081247,0.0033335479936787617,0.0026787479546153425
