job_m_051_10bins_auto_sys,0.711871862411499,0.5003100633621216,0.3475360572338104,0.2504189610481262,0.18653154373168945,0.03262839002505086,0.025235465807860263,0.019121271848377867,0.014855351120466372,0.011875772396510711
job_m_051_10bins_sys,0.7154107689857483,0.5032077431678772,0.3496909439563751,0.25197169184684753,0.18768814206123352,0.03274241784080859,0.025344814530808765,0.019212460893342054,0.014926016563152017,0.01193098292969881
job_m_051_20bins_auto_sys,0.7063936591148376,0.49619340896606445,0.3445833623409271,0.24829138815402985,0.18494676053524017,0.03245128402254186,0.02507970896318105,0.01899608290709479,0.014758391416237004,0.011800045177696845
job_m_051_20bins_sys,0.7082622051239014,0.49775928258895874,0.34574779868125916,0.24913041293621063,0.18557174503803253,0.032511773594469114,0.025139011547684838,0.01904548591102474,0.014796646592893757,0.011829920072713952
