job_m_054_10bins_auto_sys,0.7792763113975525,0.5511775016784668,0.3841370642185211,0.2767920196056366,0.2061762511730194,0.04015658632859174,0.0310135064554562,0.023456546656278263,0.01817501700863604,0.014506564694518002
job_m_054_10bins_sys,0.7797629833221436,0.5516781806945801,0.38454023003578186,0.27708250284194946,0.20639264583587646,0.040174757884768174,0.031035011374940958,0.023475735125927922,0.018189782810805608,0.014518049675967745
job_m_054_20bins_auto_sys,0.7734382152557373,0.5469066500663757,0.38109830021858215,0.27460241317749023,0.2045452743768692,0.03993817833630258,0.030829797653870943,0.023311765436487518,0.01806363077724165,0.014419953042262304
job_m_054_20bins_sys,0.774994969367981,0.5481300354003906,0.3819940686225891,0.27524787187576294,0.2050260603427887,0.03999649417976561,0.030882470335294156,0.023354472178539174,0.01809648105116113,0.014445493736663408
