job_m_075_10bins_auto_sys,2.155745267868042,1.498642086982727,1.030694603919983,0.7426725029945374,0.553200364112854,0.26485738013039994,0.21375511896387941,0.16584585168575885,0.1301544217403684,0.10363791490146725
job_m_075_10bins_sys,2.210407018661499,1.5341906547546387,1.0547324419021606,0.7599930763244629,0.5661020278930664,0.2684443290296086,0.2169547159761155,0.16859374149219983,0.13245264225142567,0.10552611223058969
job_m_075_20bins_auto_sys,2.1386353969573975,1.486457109451294,1.0224647521972656,0.7367424368858337,0.5487831830978394,0.26371652038405197,0.2126453227383231,0.1648972802432239,0.12936288317606445,0.10298858334118846
job_m_075_20bins_sys,2.148808717727661,1.4919192790985107,1.0254967212677002,0.7389271259307861,0.5504105091094971,0.2643959163573199,0.21314364407597752,0.16524720832534692,0.12965477257671346,0.10322797284989342
