job_m_015_10bins_auto_sys,1.0130436420440674,0.7099059820175171,0.49224749207496643,0.3546915352344513,0.26420190930366516,0.005823780655582699,0.004832037733511228,0.0038654633068998644,0.0030960005257408708,0.002505890258731438
job_m_015_10bins_sys,1.0180232524871826,0.7132889628410339,0.4945557415485382,0.3563547730445862,0.26544079184532166,0.005837640662333574,0.004845074285579813,0.003877206426034606,0.0031061818940657745,0.0025144704255439677
job_m_015_20bins_auto_sys,1.0086450576782227,0.7067099809646606,0.49009206891059875,0.35313844680786133,0.2630450427532196,0.005811485596908576,0.004819672602009724,0.003854465244084367,0.0030864726704295047,0.002497865005817253
job_m_015_20bins_sys,1.0116382837295532,0.708766520023346,0.49140414595603943,0.3540838658809662,0.26374927163124084,0.005819857708808978,0.004827634714238795,0.003861163864275742,0.003092274998052317,0.0025027517925561146
