job_m_017_10bins_auto_sys,0.9110962152481079,0.6396768093109131,0.4439820349216461,0.3199136257171631,0.23829659819602966,0.006202762191919,0.005073675059222034,0.004004369087083509,0.0031783782276981697,0.002559874132787046
job_m_017_10bins_sys,0.9150375723838806,0.6427152156829834,0.44620099663734436,0.32151249051094055,0.23948755860328674,0.006216828847180929,0.005088353444086767,0.004018000216235951,0.003189866822521478,0.0025693675987506297
job_m_017_20bins_auto_sys,0.9052820205688477,0.6353951692581177,0.44093915820121765,0.31772106885910034,0.23666340112686157,0.00618190791607485,0.005052900230805508,0.003985614977595195,0.0031625857960362823,0.0025468321241191344
job_m_017_20bins_sys,0.9062396287918091,0.6360600590705872,0.4413888454437256,0.31804507970809937,0.23690475523471832,0.006185351183549256,0.005056133287971482,0.003988391027604445,0.0031649223271402165,0.002548761176964648
