job_m_031_10bins_auto_sys,0.6475601196289062,0.4502383768558502,0.3103920519351959,0.223654642701149,0.16659539937973022,0.009752888892664473,0.007432629156646529,0.00558073108022481,0.004336765323788656,0.003476012701312472
job_m_031_10bins_sys,0.6472361087799072,0.45005086064338684,0.31060561537742615,0.22380852699279785,0.1667100340127945,0.009749337949120487,0.007430266603026194,0.005583700987728423,0.004339040306604347,0.0034777768307838407
job_m_031_20bins_auto_sys,0.6432327032089233,0.44731903076171875,0.30841919779777527,0.2222331017255783,0.1655365228652954,0.009705396249560733,0.007395812172647723,0.005553274515612694,0.004315737997202277,0.0034597107761524045
job_m_031_20bins_sys,0.6433131694793701,0.4474644660949707,0.30854764580726624,0.2223256528377533,0.16560547053813934,0.009706280676497023,0.007397648113293914,0.005555063313621333,0.0043171076467378704,0.003460772628525249
