job_m_069_10bins_auto_sys,2.0588700771331787,1.4361470937728882,0.9907351136207581,0.7138794660568237,0.5317530632019043,0.1897239793267152,0.15179624188788918,0.11707004448346822,0.09145594380576239,0.07265598927984539
job_m_069_10bins_sys,2.0960075855255127,1.4610389471054077,1.0070486068725586,0.7256342172622681,0.5405089259147644,0.19166924550402664,0.15352955924524478,0.11847602198351036,0.09261392020201041,0.07359779349316498
job_m_069_20bins_auto_sys,2.029938220977783,1.414732575416565,0.9759869575500488,0.7032526135444641,0.5238373279571533,0.18818667178605816,0.15028879471637555,0.11578950086574565,0.09040345061789104,0.0718011517634395
job_m_069_20bins_sys,2.05364990234375,1.4310767650604248,0.986880362033844,0.7111018896102905,0.5296841263771057,0.18944803047224973,0.15144068976003738,0.11673621792383415,0.09118136713077292,0.07243287242282875
