job_m_005_10bins_auto_sys,1.9972641468048096,1.3931853771209717,0.9647382497787476,0.6951472759246826,0.5177998542785645,0.0036490911686867258,0.0029836239232000888,0.0023515228529864107,0.0018605418503161663,0.0014898957290829034
job_m_005_10bins_sys,2.0100185871124268,1.401658535003662,0.9703217148780823,0.6991704702377319,0.5207966566085815,0.003661012562946905,0.002994577070031002,0.002360855475829048,0.0018684861822969104,0.0014965037268643152
job_m_005_20bins_auto_sys,1.9856566190719604,1.3854817152023315,0.9587684869766235,0.6908457279205322,0.5145957469940186,0.0036381780116972423,0.0029736187078522754,0.0023415092053012286,0.0018520259328551954,0.0014828170108443488
job_m_005_20bins_sys,2.001805067062378,1.3957223892211914,0.9659966826438904,0.6960540413856506,0.5184752941131592,0.003653343870522001,0.0029869091266848794,0.0023536290762549697,0.0018623341086401604,0.0014913861580510318
