job_m_051_10bins_auto_sys,0.7137706279754639,0.5016470551490784,0.3484647572040558,0.25108814239501953,0.18703000247478485,0.032689607760316305,0.025285948846504373,0.01916058996179373,0.014885815882338846,0.011899572283027158
job_m_051_10bins_sys,0.714104413986206,0.5020273923873901,0.34878405928611755,0.25131821632385254,0.1872013807296753,0.03270036037896744,0.025300300655397283,0.01917410186066868,0.01489628658337377,0.011907753034423358
job_m_051_20bins_auto_sys,0.7094245553016663,0.4984774589538574,0.3462159037590027,0.24946770071983337,0.1858229786157608,0.03254935950727239,0.025166187013512774,0.01906533387392934,0.01481201842295669,0.011841925380753267
job_m_051_20bins_sys,0.7095779180526733,0.49873265624046326,0.34644976258277893,0.2496362179517746,0.18594850599765778,0.03255431624471364,0.025175840047395932,0.01907524704034876,0.01481969711736263,0.01184792292204655
