job_m_057_10bins_auto_sys,0.8757861256599426,0.6186747550964355,0.43087756633758545,0.3104711174964905,0.23126308619976044,0.05214905029701817,0.04030380254445639,0.030469825426305948,0.02358024969825894,0.018780575459052255
job_m_057_10bins_sys,0.8778814077377319,0.6204429864883423,0.43222278356552124,0.31144043803215027,0.23198510706424713,0.05223855036958914,0.04039141770637686,0.03054412801427248,0.023637643204507033,0.018825320480791146
job_m_057_20bins_auto_sys,0.8690838813781738,0.6137837767601013,0.4274027645587921,0.30796733498573303,0.22939807176589966,0.05186203842650032,0.040060989625021054,0.030277628863333825,0.02343185242327065,0.018664911094027733
job_m_057_20bins_sys,0.8706516623497009,0.6151712536811829,0.4284745752811432,0.30873963236808777,0.22997334599494934,0.05192927505048328,0.04012994075538048,0.030336953450807957,0.023477648701913278,0.01870060162425849
