job_m_063_10bins_auto_sys,1.4042185544967651,0.98981773853302,0.6884084343910217,0.4960363507270813,0.369486540555954,0.10200677003225811,0.07952387843814121,0.06030405246921287,0.04658640620817769,0.03688709209391363
job_m_063_10bins_sys,1.407547116279602,0.9913649559020996,0.6891424655914307,0.4965652823448181,0.3698804974555969,0.10217091873480441,0.07961590272157847,0.060354131820828986,0.046625789667661954,0.03691815713179068
job_m_063_20bins_auto_sys,1.395914912223816,0.983599066734314,0.6839336156845093,0.49281203746795654,0.367084801197052,0.10159620792874345,0.0791533559547586,0.059998395708725505,0.04634612419039011,0.03669758579656472
job_m_063_20bins_sys,1.39485764503479,0.982564389705658,0.6831522583961487,0.4922490119934082,0.36666539311408997,0.1015438233239669,0.0790916059806788,0.05994496054642593,0.04630413040095387,0.036664471799028646
