job_m_069_10bins_auto_sys,2.0520668029785156,1.4307266473770142,0.9891162514686584,0.7127129435539246,0.5308841466903687,0.18936422103320294,0.15141610686350962,0.11692992383984552,0.09134067199641231,0.0725623110625604
job_m_069_10bins_sys,2.083091974258423,1.452760934829712,1.0017739534378052,0.7218335866928101,0.5376778841018677,0.19099626210255513,0.15295536985022964,0.11802262537527344,0.09224022813956372,0.0732937101894139
job_m_069_20bins_auto_sys,2.0221996307373047,1.4099199771881104,0.9730480909347534,0.701134979724884,0.5222599506378174,0.18777218418309224,0.14994792797948364,0.11553324566742794,0.09019307719416345,0.07163042050940331
job_m_069_20bins_sys,2.0440149307250977,1.4249011278152466,0.9829700589179993,0.708284318447113,0.5275853276252747,0.18893706072648753,0.15100648529445776,0.1163969511635445,0.09090246322248584,0.07220630963106534
