%!PS-Adobe-3.0 EPSF-3.0
%%Title: p_values.eps
%%Creator: Matplotlib v3.5.1, https://matplotlib.org/
%%CreationDate: Wed Jan 12 21:06:17 2022
%%Orientation: portrait
%%BoundingBox: -93 96 706 696
%%HiResBoundingBox: -93.996000 96.012000 705.996000 695.988000
%%EndComments
%%BeginProlog
/mpldict 13 dict def
mpldict begin
/_d { bind def } bind def
/m { moveto } _d
/l { lineto } _d
/r { rlineto } _d
/c { curveto } _d
/cl { closepath } _d
/ce { closepath eofill } _d
/box {
      m
      1 index 0 r
      0 exch r
      neg 0 r
      cl
    } _d
/clipbox {
      box
      clip
      newpath
    } _d
/sc { setcachedevice } _d
%!PS-Adobe-3.0 Resource-Font
%%Creator: Converted from TrueType to Type 3 by Matplotlib.
10 dict begin
/FontName /NimbusSans-Regular def
/PaintType 0 def
/FontMatrix [0.001 0 0 0.001 0 0] def
/FontBBox [-210 -299 1032 1075] def
/FontType 3 def
/Encoding [/minus /space /comma /zero /one /two /three /four /five /six /seven /eight /nine /uni03BC /equal /sigma /G /I /L /T /V /bracketleft /bracketright /a /b /c /e /f /l /m /n /o /p /r /s /t] def
/CharStrings 37 dict dup begin
/.notdef 0 def
/minus{584 0 40 197 544 267 sc
544 267 m
40 267 l
40 197 l
544 197 l
544 267 l

ce} _d
/space{278 0 0 0 0 0 sc
ce} _d
/comma{278 0 87 -149 192 104 sc
87 104 m
87 0 l
147 0 l
147 -18 l
147 -87 134 -107 87 -109 c
87 -147 l
153 -149 192 -101 192 -16 c
192 104 l
87 104 l

ce} _d
/zero{556 0 43 -23 507 723 sc
275 723 m
209 723 149 693 112 644 c
66 580 43 484 43 350 c
43 106 123 -23 275 -23 c
425 -23 507 106 507 344 c
507 484 485 578 438 644 c
401 694 342 723 275 723 c

275 645 m
370 645 417 548 417 352 c
417 146 371 50 273 50 c
180 50 133 150 133 349 c
133 548 180 645 275 645 c

ce} _d
/one{556 0 102 0 347 723 sc
259 515 m
259 0 l
347 0 l
347 723 l
289 723 l
258 612 238 597 102 579 c
102 515 l
259 515 l

ce} _d
/two{556 0 34 1 511 723 sc
506 87 m
133 87 l
142 147 174 185 261 238 c
361 294 l
460 349 511 423 511 512 c
511 572 487 628 445 667 c
403 705 351 723 284 723 c
194 723 127 691 88 629 c
63 591 52 546 50 473 c
138 473 l
141 522 147 551 159 575 c
182 619 228 646 281 646 c
361 646 421 588 421 510 c
421 452 388 402 325 366 c
233 312 l
85 227 42 159 34 1 c
506 1 l
506 87 l

ce} _d
/three{556 0 32 -23 506 723 sc
221 333 m
232 333 l
269 333 l
365 333 416 288 416 201 c
416 110 361 55 270 55 c
173 55 126 104 120 210 c
32 210 l
36 152 46 114 63 82 c
100 12 169 -23 266 -23 c
412 -23 506 65 506 202 c
506 294 471 344 386 374 c
452 401 485 451 485 524 c
485 648 404 723 269 723 c
126 723 50 643 47 490 c
135 490 l
136 534 140 559 151 581 c
171 622 215 646 270 646 c
348 646 395 599 395 521 c
395 470 377 439 338 422 c
314 412 282 408 221 407 c
221 333 l

ce} _d
/four{556 0 28 0 520 723 sc
327 175 m
327 0 l
415 0 l
415 175 l
520 175 l
520 254 l
415 254 l
415 723 l
350 723 l
28 268 l
28 175 l
327 175 l

327 254 m
105 254 l
327 573 l
327 254 l

ce} _d
/five{556 0 35 -23 513 709 sc
476 709 m
110 709 l
57 323 l
138 323 l
179 372 213 389 269 389 c
364 389 423 324 423 219 c
423 117 364 55 268 55 c
191 55 144 94 123 174 c
35 174 l
47 116 57 88 78 62 c
118 8 190 -23 270 -23 c
413 -23 513 81 513 231 c
513 371 420 467 284 467 c
234 467 194 454 153 424 c
181 622 l
476 622 l
476 709 l

ce} _d
/six{556 0 43 -23 513 723 sc
498 535 m
481 653 405 723 297 723 c
219 723 149 685 107 620 c
62 549 43 461 43 330 c
43 208 60 131 103 67 c
141 8 203 -23 281 -23 c
416 -23 513 78 513 219 c
513 352 423 446 296 446 c
226 446 171 420 133 367 c
134 546 190 645 291 645 c
353 645 396 605 410 535 c
498 535 l

285 368 m
370 368 423 308 423 212 c
423 121 363 55 282 55 c
200 55 138 124 138 216 c
138 306 198 368 285 368 c

ce} _d
/seven{556 0 46 0 520 709 sc
520 709 m
46 709 l
46 622 l
429 622 l
260 381 191 233 138 0 c
232 0 l
271 227 360 422 520 635 c
520 709 l

ce} _d
/eight{556 0 37 -23 513 723 sc
391 381 m
465 426 488 462 488 530 c
488 644 401 723 275 723 c
150 723 62 644 62 531 c
62 462 85 427 158 381 c
77 340 37 281 37 201 c
37 69 134 -23 275 -23 c
415 -23 513 69 513 201 c
513 281 473 340 391 381 c

275 645 m
350 645 398 600 398 528 c
398 460 349 415 275 415 c
200 415 152 460 152 530 c
152 600 200 645 275 645 c

275 341 m
363 341 423 283 423 199 c
423 112 364 55 273 55 c
187 55 127 114 127 198 c
127 284 186 341 275 341 c

ce} _d
/nine{556 0 38 -23 509 723 sc
53 165 m
70 47 146 -23 254 -23 c
333 -23 403 15 445 80 c
489 151 509 239 509 370 c
509 492 491 569 449 633 c
410 692 348 723 270 723 c
135 723 38 622 38 482 c
38 349 128 255 256 255 c
323 255 373 279 418 334 c
417 154 361 55 260 55 c
198 55 155 95 141 165 c
53 165 l

269 646 m
351 646 413 577 413 484 c
413 395 353 333 266 333 c
181 333 128 393 128 489 c
128 580 187 646 269 646 c

ce} _d
/uni03BC{576 0 80 -218 497 524 sc
413 524 m
413 241 l
413 169 403 131 374 98 c
348 68 310 50 271 50 c
206 50 164 90 164 153 c
164 524 l
80 524 l
80 -218 l
163 -218 l
163 -4 l
188 -16 219 -23 252 -23 c
325 -23 374 5 422 73 c
422 0 l
497 0 l
497 524 l
413 524 l

ce} _d
/equal{584 0 50 111 534 353 sc
534 353 m
50 353 l
50 283 l
534 283 l
534 353 l

534 181 m
50 181 l
50 111 l
534 111 l
534 181 l

ce} _d
/sigma{617 0 60 -23 582 539 sc
582 524 m
400 524 l
353 536 330 539 295 539 c
150 539 60 431 60 258 c
60 81 148 -23 297 -23 c
445 -23 534 82 534 254 c
534 342 515 398 467 450 c
582 450 l
582 524 l

297 462 m
392 462 447 386 447 256 c
447 131 390 54 297 54 c
204 54 147 131 147 258 c
147 385 204 462 297 462 c

ce} _d
/G{778 0 44 -23 709 741 sc
709 385 m
405 385 l
405 303 l
627 303 l
627 283 l
627 153 531 59 398 59 c
324 59 257 86 214 133 c
166 185 137 272 137 362 c
137 541 239 659 393 659 c
504 659 584 602 604 508 c
699 508 l
673 656 561 741 394 741 c
305 741 233 718 176 671 c
91 601 44 488 44 357 c
44 133 181 -23 378 -23 c
477 -23 555 14 627 93 c
650 -4 l
709 -4 l
709 385 l

ce} _d
/I{278 0 100 0 194 729 sc
194 729 m
100 729 l
100 0 l
194 0 l
194 729 l

ce} _d
/L{556 0 80 0 533 729 sc
173 729 m
80 729 l
80 0 l
533 0 l
533 82 l
173 82 l
173 729 l

ce} _d
/T{611 0 21 0 593 729 sc
354 647 m
593 647 l
593 729 l
21 729 l
21 647 l
261 647 l
261 0 l
354 0 l
354 647 l

ce} _d
/V{667 0 30 0 645 729 sc
392 0 m
645 729 l
546 729 l
344 112 l
130 729 l
30 729 l
292 0 l
392 0 l

ce} _d
/bracketleft{278 0 64 -212 250 729 sc
250 729 m
64 729 l
64 -212 l
250 -212 l
250 -140 l
147 -140 l
147 657 l
250 657 l
250 729 l

ce} _d
/bracketright{278 0 23 -212 209 729 sc
23 -212 m
209 -212 l
209 729 l
23 729 l
23 657 l
126 657 l
126 -140 l
23 -140 l
23 -212 l

ce} _d
/a{556 0 42 -23 535 539 sc
535 49 m
526 47 522 47 517 47 c
488 47 472 62 472 88 c
472 396 l
472 489 404 539 275 539 c
198 539 137 517 101 478 c
77 451 67 421 65 369 c
149 369 l
156 433 194 462 272 462 c
348 462 389 434 389 384 c
389 362 l
388 326 370 313 302 304 c
184 289 166 285 134 272 c
73 246 42 200 42 132 c
42 37 108 -23 214 -23 c
280 -23 333 0 392 54 c
398 0 424 -23 478 -23 c
496 -23 507 -21 535 -14 c
535 49 l

389 165 m
389 137 381 120 356 97 c
322 66 281 50 232 50 c
167 50 129 81 129 134 c
129 189 165 217 255 230 c
344 242 361 246 389 259 c
389 165 l

ce} _d
/b{556 0 54 -23 523 729 sc
54 729 m
54 0 l
129 0 l
129 67 l
169 6 222 -23 295 -23 c
433 -23 523 90 523 264 c
523 434 438 539 299 539 c
227 539 176 512 137 453 c
137 729 l
54 729 l

283 461 m
376 461 436 380 436 255 c
436 136 374 55 283 55 c
194 55 137 135 137 258 c
137 381 194 461 283 461 c

ce} _d
/c{500 0 31 -23 477 539 sc
471 348 m
467 399 456 432 436 461 c
400 510 337 539 264 539 c
122 539 31 427 31 253 c
31 84 121 -23 263 -23 c
388 -23 467 52 477 180 c
393 180 l
379 96 336 54 265 54 c
173 54 118 129 118 253 c
118 384 172 462 263 462 c
333 462 377 421 387 348 c
471 348 l

ce} _d
/e{556 0 40 -23 513 539 sc
513 234 m
513 314 507 362 492 401 c
458 487 378 539 280 539 c
134 539 40 428 40 255 c
40 82 130 -23 278 -23 c
398 -23 481 45 502 159 c
418 159 l
395 90 348 54 281 54 c
228 54 183 78 155 122 c
135 152 128 182 127 234 c
513 234 l

129 302 m
136 399 195 462 279 462 c
364 462 423 396 423 302 c
129 302 l

ce} _d
/f{278 0 18 0 258 732 sc
258 524 m
171 524 l
171 606 l
171 641 190 659 229 659 c
236 659 239 659 258 658 c
258 727 l
239 731 228 732 211 732 c
134 732 88 688 88 613 c
88 524 l
18 524 l
18 456 l
88 456 l
88 0 l
171 0 l
171 456 l
258 456 l
258 524 l

ce} _d
/l{222 0 68 0 152 729 sc
152 729 m
68 729 l
68 0 l
152 0 l
152 729 l

ce} _d
/m{833 0 70 0 762 539 sc
70 524 m
70 0 l
154 0 l
154 329 l
154 405 209 466 277 466 c
339 466 374 428 374 361 c
374 0 l
458 0 l
458 329 l
458 405 513 466 581 466 c
642 466 678 427 678 361 c
678 0 l
762 0 l
762 393 l
762 487 708 539 610 539 c
540 539 498 518 449 459 c
418 515 376 539 308 539 c
238 539 191 513 147 450 c
147 524 l
70 524 l

ce} _d
/n{556 0 70 0 487 539 sc
70 524 m
70 0 l
154 0 l
154 289 l
154 396 210 466 296 466 c
362 466 404 426 404 363 c
404 0 l
487 0 l
487 396 l
487 483 422 539 321 539 c
243 539 193 509 147 436 c
147 524 l
70 524 l

ce} _d
/o{556 0 36 -23 510 539 sc
272 539 m
124 539 36 434 36 258 c
36 81 124 -23 273 -23 c
421 -23 510 82 510 254 c
510 436 424 539 272 539 c

273 462 m
367 462 423 385 423 255 c
423 131 365 54 273 54 c
180 54 123 131 123 258 c
123 385 180 462 273 462 c

ce} _d
/p{556 0 54 -218 523 539 sc
54 -218 m
138 -218 l
138 55 l
182 1 231 -23 299 -23 c
435 -23 523 86 523 253 c
523 429 437 539 298 539 c
227 539 170 507 131 445 c
131 524 l
54 524 l
54 -218 l

284 461 m
376 461 436 380 436 255 c
436 136 375 55 284 55 c
195 55 138 135 138 258 c
138 381 195 461 284 461 c

ce} _d
/r{333 0 69 0 321 539 sc
69 524 m
69 0 l
153 0 l
153 272 l
154 398 206 454 321 451 c
321 536 l
307 538 299 539 289 539 c
235 539 194 507 146 429 c
146 524 l
69 524 l

ce} _d
/s{500 0 34 -23 459 539 sc
438 378 m
437 481 369 539 248 539 c
126 539 47 476 47 379 c
47 297 89 258 213 228 c
291 209 l
349 195 372 174 372 137 c
372 87 323 54 250 54 c
205 54 167 67 146 89 c
133 104 127 119 122 156 c
34 156 l
38 35 106 -23 243 -23 c
375 -23 459 42 459 143 c
459 221 415 264 311 289 c
231 308 l
163 324 134 346 134 383 c
134 432 177 462 245 462 c
312 462 348 433 350 378 c
438 378 l

ce} _d
/t{278 0 14 -23 254 668 sc
254 524 m
168 524 l
168 668 l
85 668 l
85 524 l
14 524 l
14 456 l
85 456 l
85 60 l
85 6 121 -23 186 -23 c
208 -23 226 -21 254 -16 c
254 54 l
242 51 231 50 214 50 c
178 50 168 60 168 97 c
168 456 l
254 456 l
254 524 l

ce} _d
end readonly def

/BuildGlyph {
 exch begin
 CharStrings exch
 2 copy known not {pop /.notdef} if
 true 3 1 roll get exec
 end
} _d

/BuildChar {
 1 index /Encoding get exch get
 1 index /BuildGlyph get exec
} _d

FontName currentdict end definefont pop
%!PS-Adobe-3.0 Resource-Font
%%Creator: Converted from TrueType to Type 3 by Matplotlib.
10 dict begin
/FontName /NimbusSans-BoldItalic def
/PaintType 0 def
/FontMatrix [0.001 0 0 0.001 0 0] def
/FontBBox [-144 -309 1196 1073] def
/FontType 3 def
/Encoding [/space /A /L /S /T] def
/CharStrings 6 dict dup begin
/.notdef 0 def
/space{278 0 0 0 0 0 sc
ce} _d
/A{722 0 26 0 703 729 sc
532 147 m
550 0 l
703 0 l
606 729 l
433 729 l
26 0 l
179 0 l
260 147 l
532 147 l

518 272 m
329 272 l
483 555 l
518 272 l

ce} _d
/L{611 0 80 0 606 729 sc
385 729 m
235 729 l
80 0 l
579 0 l
606 125 l
257 125 l
385 729 l

ce} _d
/S{667 0 76 -23 725 741 sc
717 507 m
723 535 725 549 725 569 c
725 677 632 741 473 741 c
376 741 300 717 243 667 c
186 618 151 543 151 472 c
151 389 201 345 320 321 c
418 301 l
509 283 538 263 538 216 c
538 148 471 105 367 105 c
276 105 224 138 224 195 c
224 200 225 209 226 218 c
80 218 l
77 198 76 188 76 174 c
76 121 96 75 132 42 c
180 -2 248 -23 345 -23 c
467 -23 560 12 618 79 c
660 126 687 199 687 265 c
687 342 632 394 530 414 c
421 436 l
327 455 300 471 300 509 c
300 573 356 613 447 613 c
532 613 579 584 579 530 c
579 525 578 516 577 507 c
717 507 l

ce} _d
/T{611 0 142 0 753 729 sc
514 604 m
726 604 l
753 729 l
169 729 l
142 604 l
364 604 l
235 0 l
385 0 l
514 604 l

ce} _d
end readonly def

/BuildGlyph {
 exch begin
 CharStrings exch
 2 copy known not {pop /.notdef} if
 true 3 1 roll get exec
 end
} _d

/BuildChar {
 1 index /Encoding get exch get
 1 index /BuildGlyph get exec
} _d

FontName currentdict end definefont pop
%!PS-Adobe-3.0 Resource-Font
%%Creator: Converted from TrueType to Type 3 by Matplotlib.
10 dict begin
/FontName /DejaVuSans def
/PaintType 0 def
/FontMatrix [0.00048828125 0 0 0.00048828125 0 0] def
/FontBBox [-2090 -948 3673 2524] def
/FontType 3 def
/Encoding [/radical] def
/CharStrings 2 dict dup begin
/.notdef 0 def
/radical{1305 0 61 -41 1305 1661 sc
1116 1661 m
1305 1661 l
1305 1565 l
1190 1565 l
596 -41 l
530 -41 l
211 842 l
86 797 l
61 877 l
344 975 l
600 266 l
1116 1661 l

ce} _d
end readonly def

/BuildGlyph {
 exch begin
 CharStrings exch
 2 copy known not {pop /.notdef} if
 true 3 1 roll get exec
 end
} _d

/BuildChar {
 1 index /Encoding get exch get
 1 index /BuildGlyph get exec
} _d

FontName currentdict end definefont pop
end
%%EndProlog
mpldict begin
-93.996 96.012 translate
799.992 599.976 0 0 clipbox
gsave
0 0 m
799.992 0 l
799.992 599.976 l
0 599.976 l
0 0 l
cl
grestore
gsave
99.999 65.99736 m
719.9928 65.99736 l
719.9928 527.97888 l
99.999 527.97888 l
cl
1.000 setgray
fill
grestore
1.500 setlinewidth
1 setlinejoin
2 setlinecap
[] 0 setdash
1.000 0.000 0.000 setrgbcolor
gsave
619.994 461.982 99.999 65.997 clipbox
138.748613 332.743899 m
154.248458 325.937892 l
169.748303 311.312642 l
185.248148 326.719985 l
200.747993 325.077228 l
216.247838 331.75792 l
231.747683 333.916656 l
247.247528 320.288569 l
278.247218 318.748902 l
309.246908 305.48793 l
340.246598 326.160186 l
371.246288 312.060266 l
402.245978 253.061398 l
425.495745 318.198769 l
448.745513 307.372238 l
471.99528 322.991575 l
495.245048 333.675029 l
518.494815 327.208865 l
541.744583 325.281552 l
564.99435 305.963647 l
588.244118 330.680787 l
611.493885 332.782968 l
634.743653 331.627974 l
657.99342 328.362422 l
681.243188 321.216496 l
stroke
grestore
0 setlinecap
[1.5 2.475] 0 setdash
0.000 setgray
gsave
619.994 461.982 99.999 65.997 clipbox
99.999 335.48658 m
719.9928 335.48658 l
stroke
grestore
gsave
619.994 461.982 99.999 65.997 clipbox
99.999 316.294499 m
719.9928 316.294499 l
stroke
grestore
gsave
619.994 461.982 99.999 65.997 clipbox
99.999 283.822182 m
719.9928 283.822182 l
stroke
grestore
gsave
619.994 461.982 99.999 65.997 clipbox
99.999 236.596778 m
719.9928 236.596778 l
stroke
grestore
gsave
619.994 461.982 99.999 65.997 clipbox
99.999 173.858306 m
719.9928 173.858306 l
stroke
grestore
gsave
619.994 461.982 99.999 65.997 clipbox
99.999 95.193989 m
719.9928 95.193989 l
stroke
grestore
gsave
619.994 461.982 99.999 65.997 clipbox
99.999 335.48658 m
719.9928 335.48658 l
stroke
grestore
gsave
619.994 461.982 99.999 65.997 clipbox
99.999 316.294499 m
719.9928 316.294499 l
stroke
grestore
gsave
619.994 461.982 99.999 65.997 clipbox
99.999 283.822182 m
719.9928 283.822182 l
stroke
grestore
gsave
619.994 461.982 99.999 65.997 clipbox
99.999 236.596778 m
719.9928 236.596778 l
stroke
grestore
gsave
619.994 461.982 99.999 65.997 clipbox
99.999 173.858306 m
719.9928 173.858306 l
stroke
grestore
gsave
619.994 461.982 99.999 65.997 clipbox
99.999 95.193989 m
719.9928 95.193989 l
stroke
grestore
gsave
619.994 461.982 99.999 65.997 clipbox
99.999 335.48658 m
719.9928 335.48658 l
stroke
grestore
gsave
619.994 461.982 99.999 65.997 clipbox
99.999 316.294499 m
719.9928 316.294499 l
stroke
grestore
gsave
619.994 461.982 99.999 65.997 clipbox
99.999 283.822182 m
719.9928 283.822182 l
stroke
grestore
gsave
619.994 461.982 99.999 65.997 clipbox
99.999 236.596778 m
719.9928 236.596778 l
stroke
grestore
gsave
619.994 461.982 99.999 65.997 clipbox
99.999 173.858306 m
719.9928 173.858306 l
stroke
grestore
gsave
619.994 461.982 99.999 65.997 clipbox
99.999 95.193989 m
719.9928 95.193989 l
stroke
grestore
gsave
619.994 461.982 99.999 65.997 clipbox
99.999 335.48658 m
719.9928 335.48658 l
stroke
grestore
gsave
619.994 461.982 99.999 65.997 clipbox
99.999 316.294499 m
719.9928 316.294499 l
stroke
grestore
gsave
619.994 461.982 99.999 65.997 clipbox
99.999 283.822182 m
719.9928 283.822182 l
stroke
grestore
gsave
619.994 461.982 99.999 65.997 clipbox
99.999 236.596778 m
719.9928 236.596778 l
stroke
grestore
gsave
619.994 461.982 99.999 65.997 clipbox
99.999 173.858306 m
719.9928 173.858306 l
stroke
grestore
gsave
619.994 461.982 99.999 65.997 clipbox
99.999 95.193989 m
719.9928 95.193989 l
stroke
grestore
gsave
619.994 461.982 99.999 65.997 clipbox
99.999 335.48658 m
719.9928 335.48658 l
stroke
grestore
gsave
619.994 461.982 99.999 65.997 clipbox
99.999 316.294499 m
719.9928 316.294499 l
stroke
grestore
gsave
619.994 461.982 99.999 65.997 clipbox
99.999 283.822182 m
719.9928 283.822182 l
stroke
grestore
gsave
619.994 461.982 99.999 65.997 clipbox
99.999 236.596778 m
719.9928 236.596778 l
stroke
grestore
gsave
619.994 461.982 99.999 65.997 clipbox
99.999 173.858306 m
719.9928 173.858306 l
stroke
grestore
gsave
619.994 461.982 99.999 65.997 clipbox
99.999 95.193989 m
719.9928 95.193989 l
stroke
grestore
gsave
619.994 461.982 99.999 65.997 clipbox
99.999 335.48658 m
719.9928 335.48658 l
stroke
grestore
gsave
619.994 461.982 99.999 65.997 clipbox
99.999 316.294499 m
719.9928 316.294499 l
stroke
grestore
gsave
619.994 461.982 99.999 65.997 clipbox
99.999 283.822182 m
719.9928 283.822182 l
stroke
grestore
gsave
619.994 461.982 99.999 65.997 clipbox
99.999 236.596778 m
719.9928 236.596778 l
stroke
grestore
gsave
619.994 461.982 99.999 65.997 clipbox
99.999 173.858306 m
719.9928 173.858306 l
stroke
grestore
gsave
619.994 461.982 99.999 65.997 clipbox
99.999 95.193989 m
719.9928 95.193989 l
stroke
grestore
1.000 setlinewidth
0 setlinejoin
2 setlinecap
[] 0 setdash
gsave
99.999 65.99736 m
99.999 527.97888 l
stroke
grestore
gsave
719.9928 65.99736 m
719.9928 527.97888 l
stroke
grestore
gsave
99.999 65.99736 m
719.9928 65.99736 l
stroke
grestore
gsave
99.999 527.97888 m
719.9928 527.97888 l
stroke
grestore
0.800 setlinewidth
1 setlinejoin
0 setlinecap
gsave
/o {
gsave
newpath
translate
0.8 setlinewidth
1 setlinejoin

0 setlinecap

0 0 m
0 5 l

gsave
0.000 setgray
fill
grestore
stroke
grestore
} bind def
99.999 65.9974 o
grestore
gsave
/o {
gsave
newpath
translate
0.8 setlinewidth
1 setlinejoin

0 setlinecap

0 0 m
0 -5 l

gsave
0.000 setgray
fill
grestore
stroke
grestore
} bind def
99.999 527.979 o
grestore
gsave
94.499000 49.231735 translate
0.000000 rotate
/NimbusSans-Regular 18.0 selectfont
0.000000 0.843750 moveto
/zero glyphshow
grestore
gsave
/o {
gsave
newpath
translate
0.8 setlinewidth
1 setlinejoin

0 setlinecap

0 0 m
0 5 l

gsave
0.000 setgray
fill
grestore
stroke
grestore
} bind def
177.498 65.9974 o
grestore
gsave
/o {
gsave
newpath
translate
0.8 setlinewidth
1 setlinejoin

0 setlinecap

0 0 m
0 -5 l

gsave
0.000 setgray
fill
grestore
stroke
grestore
} bind def
177.498 527.979 o
grestore
gsave
166.998225 49.231735 translate
0.000000 rotate
/NimbusSans-Regular 18.0 selectfont
0.000000 0.843750 moveto
/one glyphshow
10.007996 0.843750 moveto
/zero glyphshow
grestore
gsave
/o {
gsave
newpath
translate
0.8 setlinewidth
1 setlinejoin

0 setlinecap

0 0 m
0 5 l

gsave
0.000 setgray
fill
grestore
stroke
grestore
} bind def
254.997 65.9974 o
grestore
gsave
/o {
gsave
newpath
translate
0.8 setlinewidth
1 setlinejoin

0 setlinecap

0 0 m
0 -5 l

gsave
0.000 setgray
fill
grestore
stroke
grestore
} bind def
254.997 527.979 o
grestore
gsave
244.497450 49.231735 translate
0.000000 rotate
/NimbusSans-Regular 18.0 selectfont
0.000000 0.843750 moveto
/two glyphshow
10.007996 0.843750 moveto
/zero glyphshow
grestore
gsave
/o {
gsave
newpath
translate
0.8 setlinewidth
1 setlinejoin

0 setlinecap

0 0 m
0 5 l

gsave
0.000 setgray
fill
grestore
stroke
grestore
} bind def
332.497 65.9974 o
grestore
gsave
/o {
gsave
newpath
translate
0.8 setlinewidth
1 setlinejoin

0 setlinecap

0 0 m
0 -5 l

gsave
0.000 setgray
fill
grestore
stroke
grestore
} bind def
332.497 527.979 o
grestore
gsave
321.996675 49.231735 translate
0.000000 rotate
/NimbusSans-Regular 18.0 selectfont
0.000000 0.843750 moveto
/three glyphshow
10.007996 0.843750 moveto
/zero glyphshow
grestore
gsave
/o {
gsave
newpath
translate
0.8 setlinewidth
1 setlinejoin

0 setlinecap

0 0 m
0 5 l

gsave
0.000 setgray
fill
grestore
stroke
grestore
} bind def
409.996 65.9974 o
grestore
gsave
/o {
gsave
newpath
translate
0.8 setlinewidth
1 setlinejoin

0 setlinecap

0 0 m
0 -5 l

gsave
0.000 setgray
fill
grestore
stroke
grestore
} bind def
409.996 527.979 o
grestore
gsave
399.495900 49.231735 translate
0.000000 rotate
/NimbusSans-Regular 18.0 selectfont
0.000000 0.843750 moveto
/four glyphshow
10.007996 0.843750 moveto
/zero glyphshow
grestore
gsave
/o {
gsave
newpath
translate
0.8 setlinewidth
1 setlinejoin

0 setlinecap

0 0 m
0 5 l

gsave
0.000 setgray
fill
grestore
stroke
grestore
} bind def
487.495 65.9974 o
grestore
gsave
/o {
gsave
newpath
translate
0.8 setlinewidth
1 setlinejoin

0 setlinecap

0 0 m
0 -5 l

gsave
0.000 setgray
fill
grestore
stroke
grestore
} bind def
487.495 527.979 o
grestore
gsave
476.995125 49.231735 translate
0.000000 rotate
/NimbusSans-Regular 18.0 selectfont
0.000000 0.843750 moveto
/five glyphshow
10.007996 0.843750 moveto
/zero glyphshow
grestore
gsave
/o {
gsave
newpath
translate
0.8 setlinewidth
1 setlinejoin

0 setlinecap

0 0 m
0 5 l

gsave
0.000 setgray
fill
grestore
stroke
grestore
} bind def
564.994 65.9974 o
grestore
gsave
/o {
gsave
newpath
translate
0.8 setlinewidth
1 setlinejoin

0 setlinecap

0 0 m
0 -5 l

gsave
0.000 setgray
fill
grestore
stroke
grestore
} bind def
564.994 527.979 o
grestore
gsave
554.494350 49.231735 translate
0.000000 rotate
/NimbusSans-Regular 18.0 selectfont
0.000000 0.843750 moveto
/six glyphshow
10.007996 0.843750 moveto
/zero glyphshow
grestore
gsave
/o {
gsave
newpath
translate
0.8 setlinewidth
1 setlinejoin

0 setlinecap

0 0 m
0 5 l

gsave
0.000 setgray
fill
grestore
stroke
grestore
} bind def
642.494 65.9974 o
grestore
gsave
/o {
gsave
newpath
translate
0.8 setlinewidth
1 setlinejoin

0 setlinecap

0 0 m
0 -5 l

gsave
0.000 setgray
fill
grestore
stroke
grestore
} bind def
642.494 527.979 o
grestore
gsave
631.993575 49.231735 translate
0.000000 rotate
/NimbusSans-Regular 18.0 selectfont
0.000000 0.843750 moveto
/seven glyphshow
10.007996 0.843750 moveto
/zero glyphshow
grestore
gsave
/o {
gsave
newpath
translate
0.8 setlinewidth
1 setlinejoin

0 setlinecap

0 0 m
0 5 l

gsave
0.000 setgray
fill
grestore
stroke
grestore
} bind def
719.993 65.9974 o
grestore
gsave
/o {
gsave
newpath
translate
0.8 setlinewidth
1 setlinejoin

0 setlinecap

0 0 m
0 -5 l

gsave
0.000 setgray
fill
grestore
stroke
grestore
} bind def
719.993 527.979 o
grestore
gsave
709.492800 49.231735 translate
0.000000 rotate
/NimbusSans-Regular 18.0 selectfont
0.000000 0.843750 moveto
/eight glyphshow
10.007996 0.843750 moveto
/zero glyphshow
grestore
0.600 setlinewidth
gsave
/o {
gsave
newpath
translate
0.6 setlinewidth
1 setlinejoin

0 setlinecap

0 0 m
0 3 l

gsave
0.000 setgray
fill
grestore
stroke
grestore
} bind def
115.499 65.9974 o
grestore
gsave
/o {
gsave
newpath
translate
0.6 setlinewidth
1 setlinejoin

0 setlinecap

0 0 m
0 -3 l

gsave
0.000 setgray
fill
grestore
stroke
grestore
} bind def
115.499 527.979 o
grestore
gsave
/o {
gsave
newpath
translate
0.6 setlinewidth
1 setlinejoin

0 setlinecap

0 0 m
0 3 l

gsave
0.000 setgray
fill
grestore
stroke
grestore
} bind def
130.999 65.9974 o
grestore
gsave
/o {
gsave
newpath
translate
0.6 setlinewidth
1 setlinejoin

0 setlinecap

0 0 m
0 -3 l

gsave
0.000 setgray
fill
grestore
stroke
grestore
} bind def
130.999 527.979 o
grestore
gsave
/o {
gsave
newpath
translate
0.6 setlinewidth
1 setlinejoin

0 setlinecap

0 0 m
0 3 l

gsave
0.000 setgray
fill
grestore
stroke
grestore
} bind def
146.499 65.9974 o
grestore
gsave
/o {
gsave
newpath
translate
0.6 setlinewidth
1 setlinejoin

0 setlinecap

0 0 m
0 -3 l

gsave
0.000 setgray
fill
grestore
stroke
grestore
} bind def
146.499 527.979 o
grestore
gsave
/o {
gsave
newpath
translate
0.6 setlinewidth
1 setlinejoin

0 setlinecap

0 0 m
0 3 l

gsave
0.000 setgray
fill
grestore
stroke
grestore
} bind def
161.998 65.9974 o
grestore
gsave
/o {
gsave
newpath
translate
0.6 setlinewidth
1 setlinejoin

0 setlinecap

0 0 m
0 -3 l

gsave
0.000 setgray
fill
grestore
stroke
grestore
} bind def
161.998 527.979 o
grestore
gsave
/o {
gsave
newpath
translate
0.6 setlinewidth
1 setlinejoin

0 setlinecap

0 0 m
0 3 l

gsave
0.000 setgray
fill
grestore
stroke
grestore
} bind def
192.998 65.9974 o
grestore
gsave
/o {
gsave
newpath
translate
0.6 setlinewidth
1 setlinejoin

0 setlinecap

0 0 m
0 -3 l

gsave
0.000 setgray
fill
grestore
stroke
grestore
} bind def
192.998 527.979 o
grestore
gsave
/o {
gsave
newpath
translate
0.6 setlinewidth
1 setlinejoin

0 setlinecap

0 0 m
0 3 l

gsave
0.000 setgray
fill
grestore
stroke
grestore
} bind def
208.498 65.9974 o
grestore
gsave
/o {
gsave
newpath
translate
0.6 setlinewidth
1 setlinejoin

0 setlinecap

0 0 m
0 -3 l

gsave
0.000 setgray
fill
grestore
stroke
grestore
} bind def
208.498 527.979 o
grestore
gsave
/o {
gsave
newpath
translate
0.6 setlinewidth
1 setlinejoin

0 setlinecap

0 0 m
0 3 l

gsave
0.000 setgray
fill
grestore
stroke
grestore
} bind def
223.998 65.9974 o
grestore
gsave
/o {
gsave
newpath
translate
0.6 setlinewidth
1 setlinejoin

0 setlinecap

0 0 m
0 -3 l

gsave
0.000 setgray
fill
grestore
stroke
grestore
} bind def
223.998 527.979 o
grestore
gsave
/o {
gsave
newpath
translate
0.6 setlinewidth
1 setlinejoin

0 setlinecap

0 0 m
0 3 l

gsave
0.000 setgray
fill
grestore
stroke
grestore
} bind def
239.498 65.9974 o
grestore
gsave
/o {
gsave
newpath
translate
0.6 setlinewidth
1 setlinejoin

0 setlinecap

0 0 m
0 -3 l

gsave
0.000 setgray
fill
grestore
stroke
grestore
} bind def
239.498 527.979 o
grestore
gsave
/o {
gsave
newpath
translate
0.6 setlinewidth
1 setlinejoin

0 setlinecap

0 0 m
0 3 l

gsave
0.000 setgray
fill
grestore
stroke
grestore
} bind def
270.497 65.9974 o
grestore
gsave
/o {
gsave
newpath
translate
0.6 setlinewidth
1 setlinejoin

0 setlinecap

0 0 m
0 -3 l

gsave
0.000 setgray
fill
grestore
stroke
grestore
} bind def
270.497 527.979 o
grestore
gsave
/o {
gsave
newpath
translate
0.6 setlinewidth
1 setlinejoin

0 setlinecap

0 0 m
0 3 l

gsave
0.000 setgray
fill
grestore
stroke
grestore
} bind def
285.997 65.9974 o
grestore
gsave
/o {
gsave
newpath
translate
0.6 setlinewidth
1 setlinejoin

0 setlinecap

0 0 m
0 -3 l

gsave
0.000 setgray
fill
grestore
stroke
grestore
} bind def
285.997 527.979 o
grestore
gsave
/o {
gsave
newpath
translate
0.6 setlinewidth
1 setlinejoin

0 setlinecap

0 0 m
0 3 l

gsave
0.000 setgray
fill
grestore
stroke
grestore
} bind def
301.497 65.9974 o
grestore
gsave
/o {
gsave
newpath
translate
0.6 setlinewidth
1 setlinejoin

0 setlinecap

0 0 m
0 -3 l

gsave
0.000 setgray
fill
grestore
stroke
grestore
} bind def
301.497 527.979 o
grestore
gsave
/o {
gsave
newpath
translate
0.6 setlinewidth
1 setlinejoin

0 setlinecap

0 0 m
0 3 l

gsave
0.000 setgray
fill
grestore
stroke
grestore
} bind def
316.997 65.9974 o
grestore
gsave
/o {
gsave
newpath
translate
0.6 setlinewidth
1 setlinejoin

0 setlinecap

0 0 m
0 -3 l

gsave
0.000 setgray
fill
grestore
stroke
grestore
} bind def
316.997 527.979 o
grestore
gsave
/o {
gsave
newpath
translate
0.6 setlinewidth
1 setlinejoin

0 setlinecap

0 0 m
0 3 l

gsave
0.000 setgray
fill
grestore
stroke
grestore
} bind def
347.997 65.9974 o
grestore
gsave
/o {
gsave
newpath
translate
0.6 setlinewidth
1 setlinejoin

0 setlinecap

0 0 m
0 -3 l

gsave
0.000 setgray
fill
grestore
stroke
grestore
} bind def
347.997 527.979 o
grestore
gsave
/o {
gsave
newpath
translate
0.6 setlinewidth
1 setlinejoin

0 setlinecap

0 0 m
0 3 l

gsave
0.000 setgray
fill
grestore
stroke
grestore
} bind def
363.496 65.9974 o
grestore
gsave
/o {
gsave
newpath
translate
0.6 setlinewidth
1 setlinejoin

0 setlinecap

0 0 m
0 -3 l

gsave
0.000 setgray
fill
grestore
stroke
grestore
} bind def
363.496 527.979 o
grestore
gsave
/o {
gsave
newpath
translate
0.6 setlinewidth
1 setlinejoin

0 setlinecap

0 0 m
0 3 l

gsave
0.000 setgray
fill
grestore
stroke
grestore
} bind def
378.996 65.9974 o
grestore
gsave
/o {
gsave
newpath
translate
0.6 setlinewidth
1 setlinejoin

0 setlinecap

0 0 m
0 -3 l

gsave
0.000 setgray
fill
grestore
stroke
grestore
} bind def
378.996 527.979 o
grestore
gsave
/o {
gsave
newpath
translate
0.6 setlinewidth
1 setlinejoin

0 setlinecap

0 0 m
0 3 l

gsave
0.000 setgray
fill
grestore
stroke
grestore
} bind def
394.496 65.9974 o
grestore
gsave
/o {
gsave
newpath
translate
0.6 setlinewidth
1 setlinejoin

0 setlinecap

0 0 m
0 -3 l

gsave
0.000 setgray
fill
grestore
stroke
grestore
} bind def
394.496 527.979 o
grestore
gsave
/o {
gsave
newpath
translate
0.6 setlinewidth
1 setlinejoin

0 setlinecap

0 0 m
0 3 l

gsave
0.000 setgray
fill
grestore
stroke
grestore
} bind def
425.496 65.9974 o
grestore
gsave
/o {
gsave
newpath
translate
0.6 setlinewidth
1 setlinejoin

0 setlinecap

0 0 m
0 -3 l

gsave
0.000 setgray
fill
grestore
stroke
grestore
} bind def
425.496 527.979 o
grestore
gsave
/o {
gsave
newpath
translate
0.6 setlinewidth
1 setlinejoin

0 setlinecap

0 0 m
0 3 l

gsave
0.000 setgray
fill
grestore
stroke
grestore
} bind def
440.996 65.9974 o
grestore
gsave
/o {
gsave
newpath
translate
0.6 setlinewidth
1 setlinejoin

0 setlinecap

0 0 m
0 -3 l

gsave
0.000 setgray
fill
grestore
stroke
grestore
} bind def
440.996 527.979 o
grestore
gsave
/o {
gsave
newpath
translate
0.6 setlinewidth
1 setlinejoin

0 setlinecap

0 0 m
0 3 l

gsave
0.000 setgray
fill
grestore
stroke
grestore
} bind def
456.495 65.9974 o
grestore
gsave
/o {
gsave
newpath
translate
0.6 setlinewidth
1 setlinejoin

0 setlinecap

0 0 m
0 -3 l

gsave
0.000 setgray
fill
grestore
stroke
grestore
} bind def
456.495 527.979 o
grestore
gsave
/o {
gsave
newpath
translate
0.6 setlinewidth
1 setlinejoin

0 setlinecap

0 0 m
0 3 l

gsave
0.000 setgray
fill
grestore
stroke
grestore
} bind def
471.995 65.9974 o
grestore
gsave
/o {
gsave
newpath
translate
0.6 setlinewidth
1 setlinejoin

0 setlinecap

0 0 m
0 -3 l

gsave
0.000 setgray
fill
grestore
stroke
grestore
} bind def
471.995 527.979 o
grestore
gsave
/o {
gsave
newpath
translate
0.6 setlinewidth
1 setlinejoin

0 setlinecap

0 0 m
0 3 l

gsave
0.000 setgray
fill
grestore
stroke
grestore
} bind def
502.995 65.9974 o
grestore
gsave
/o {
gsave
newpath
translate
0.6 setlinewidth
1 setlinejoin

0 setlinecap

0 0 m
0 -3 l

gsave
0.000 setgray
fill
grestore
stroke
grestore
} bind def
502.995 527.979 o
grestore
gsave
/o {
gsave
newpath
translate
0.6 setlinewidth
1 setlinejoin

0 setlinecap

0 0 m
0 3 l

gsave
0.000 setgray
fill
grestore
stroke
grestore
} bind def
518.495 65.9974 o
grestore
gsave
/o {
gsave
newpath
translate
0.6 setlinewidth
1 setlinejoin

0 setlinecap

0 0 m
0 -3 l

gsave
0.000 setgray
fill
grestore
stroke
grestore
} bind def
518.495 527.979 o
grestore
gsave
/o {
gsave
newpath
translate
0.6 setlinewidth
1 setlinejoin

0 setlinecap

0 0 m
0 3 l

gsave
0.000 setgray
fill
grestore
stroke
grestore
} bind def
533.995 65.9974 o
grestore
gsave
/o {
gsave
newpath
translate
0.6 setlinewidth
1 setlinejoin

0 setlinecap

0 0 m
0 -3 l

gsave
0.000 setgray
fill
grestore
stroke
grestore
} bind def
533.995 527.979 o
grestore
gsave
/o {
gsave
newpath
translate
0.6 setlinewidth
1 setlinejoin

0 setlinecap

0 0 m
0 3 l

gsave
0.000 setgray
fill
grestore
stroke
grestore
} bind def
549.495 65.9974 o
grestore
gsave
/o {
gsave
newpath
translate
0.6 setlinewidth
1 setlinejoin

0 setlinecap

0 0 m
0 -3 l

gsave
0.000 setgray
fill
grestore
stroke
grestore
} bind def
549.495 527.979 o
grestore
gsave
/o {
gsave
newpath
translate
0.6 setlinewidth
1 setlinejoin

0 setlinecap

0 0 m
0 3 l

gsave
0.000 setgray
fill
grestore
stroke
grestore
} bind def
580.494 65.9974 o
grestore
gsave
/o {
gsave
newpath
translate
0.6 setlinewidth
1 setlinejoin

0 setlinecap

0 0 m
0 -3 l

gsave
0.000 setgray
fill
grestore
stroke
grestore
} bind def
580.494 527.979 o
grestore
gsave
/o {
gsave
newpath
translate
0.6 setlinewidth
1 setlinejoin

0 setlinecap

0 0 m
0 3 l

gsave
0.000 setgray
fill
grestore
stroke
grestore
} bind def
595.994 65.9974 o
grestore
gsave
/o {
gsave
newpath
translate
0.6 setlinewidth
1 setlinejoin

0 setlinecap

0 0 m
0 -3 l

gsave
0.000 setgray
fill
grestore
stroke
grestore
} bind def
595.994 527.979 o
grestore
gsave
/o {
gsave
newpath
translate
0.6 setlinewidth
1 setlinejoin

0 setlinecap

0 0 m
0 3 l

gsave
0.000 setgray
fill
grestore
stroke
grestore
} bind def
611.494 65.9974 o
grestore
gsave
/o {
gsave
newpath
translate
0.6 setlinewidth
1 setlinejoin

0 setlinecap

0 0 m
0 -3 l

gsave
0.000 setgray
fill
grestore
stroke
grestore
} bind def
611.494 527.979 o
grestore
gsave
/o {
gsave
newpath
translate
0.6 setlinewidth
1 setlinejoin

0 setlinecap

0 0 m
0 3 l

gsave
0.000 setgray
fill
grestore
stroke
grestore
} bind def
626.994 65.9974 o
grestore
gsave
/o {
gsave
newpath
translate
0.6 setlinewidth
1 setlinejoin

0 setlinecap

0 0 m
0 -3 l

gsave
0.000 setgray
fill
grestore
stroke
grestore
} bind def
626.994 527.979 o
grestore
gsave
/o {
gsave
newpath
translate
0.6 setlinewidth
1 setlinejoin

0 setlinecap

0 0 m
0 3 l

gsave
0.000 setgray
fill
grestore
stroke
grestore
} bind def
657.993 65.9974 o
grestore
gsave
/o {
gsave
newpath
translate
0.6 setlinewidth
1 setlinejoin

0 setlinecap

0 0 m
0 -3 l

gsave
0.000 setgray
fill
grestore
stroke
grestore
} bind def
657.993 527.979 o
grestore
gsave
/o {
gsave
newpath
translate
0.6 setlinewidth
1 setlinejoin

0 setlinecap

0 0 m
0 3 l

gsave
0.000 setgray
fill
grestore
stroke
grestore
} bind def
673.493 65.9974 o
grestore
gsave
/o {
gsave
newpath
translate
0.6 setlinewidth
1 setlinejoin

0 setlinecap

0 0 m
0 -3 l

gsave
0.000 setgray
fill
grestore
stroke
grestore
} bind def
673.493 527.979 o
grestore
gsave
/o {
gsave
newpath
translate
0.6 setlinewidth
1 setlinejoin

0 setlinecap

0 0 m
0 3 l

gsave
0.000 setgray
fill
grestore
stroke
grestore
} bind def
688.993 65.9974 o
grestore
gsave
/o {
gsave
newpath
translate
0.6 setlinewidth
1 setlinejoin

0 setlinecap

0 0 m
0 -3 l

gsave
0.000 setgray
fill
grestore
stroke
grestore
} bind def
688.993 527.979 o
grestore
gsave
/o {
gsave
newpath
translate
0.6 setlinewidth
1 setlinejoin

0 setlinecap

0 0 m
0 3 l

gsave
0.000 setgray
fill
grestore
stroke
grestore
} bind def
704.493 65.9974 o
grestore
gsave
/o {
gsave
newpath
translate
0.6 setlinewidth
1 setlinejoin

0 setlinecap

0 0 m
0 -3 l

gsave
0.000 setgray
fill
grestore
stroke
grestore
} bind def
704.493 527.979 o
grestore
gsave
367.495900 26.309860 translate
0.000000 rotate
/NimbusSans-Regular 20.0 selectfont
0.000000 0.140625 moveto
/m glyphshow
/NimbusSans-Regular 14.0 selectfont
16.831941 -2.806875 moveto
/uni03BC glyphshow
24.895944 -2.806875 moveto
/uni03BC glyphshow
/NimbusSans-Regular 20.0 selectfont
33.451197 0.140625 moveto
/bracketleft glyphshow
39.011195 0.140625 moveto
/G glyphshow
54.571192 0.140625 moveto
/e glyphshow
65.691187 0.140625 moveto
/V glyphshow
79.031184 0.140625 moveto
/bracketright glyphshow
grestore
0.800 setlinewidth
gsave
/o {
gsave
newpath
translate
0.8 setlinewidth
1 setlinejoin

0 setlinecap

0 0 m
5 0 l

gsave
0.000 setgray
fill
grestore
stroke
grestore
} bind def
99.999 65.9974 o
grestore
gsave
61.499000 59.364548 translate
0.000000 rotate
/NimbusSans-Regular 18.0 selectfont
0.000000 0.775875 moveto
/one glyphshow
10.007996 0.775875 moveto
/zero glyphshow
/NimbusSans-Regular 12.6 selectfont
20.170735 6.965625 moveto
/minus glyphshow
27.529130 6.965625 moveto
/seven glyphshow
grestore
gsave
/o {
gsave
newpath
translate
0.8 setlinewidth
1 setlinejoin

0 setlinecap

0 0 m
5 0 l

gsave
0.000 setgray
fill
grestore
stroke
grestore
} bind def
99.999 104.496 o
grestore
gsave
61.499000 97.863007 translate
0.000000 rotate
/NimbusSans-Regular 18.0 selectfont
0.000000 0.600875 moveto
/one glyphshow
10.007996 0.600875 moveto
/zero glyphshow
/NimbusSans-Regular 12.6 selectfont
20.170735 6.790625 moveto
/minus glyphshow
27.529130 6.790625 moveto
/six glyphshow
grestore
gsave
/o {
gsave
newpath
translate
0.8 setlinewidth
1 setlinejoin

0 setlinecap

0 0 m
5 0 l

gsave
0.000 setgray
fill
grestore
stroke
grestore
} bind def
99.999 142.994 o
grestore
gsave
61.499000 136.361468 translate
0.000000 rotate
/NimbusSans-Regular 18.0 selectfont
0.000000 0.775875 moveto
/one glyphshow
10.007996 0.775875 moveto
/zero glyphshow
/NimbusSans-Regular 12.6 selectfont
20.170735 6.965625 moveto
/minus glyphshow
27.529130 6.965625 moveto
/five glyphshow
grestore
gsave
/o {
gsave
newpath
translate
0.8 setlinewidth
1 setlinejoin

0 setlinecap

0 0 m
5 0 l

gsave
0.000 setgray
fill
grestore
stroke
grestore
} bind def
99.999 181.493 o
grestore
gsave
61.499000 174.859927 translate
0.000000 rotate
/NimbusSans-Regular 18.0 selectfont
0.000000 0.600875 moveto
/one glyphshow
10.007996 0.600875 moveto
/zero glyphshow
/NimbusSans-Regular 12.6 selectfont
20.170735 6.790625 moveto
/minus glyphshow
27.529130 6.790625 moveto
/four glyphshow
grestore
gsave
/o {
gsave
newpath
translate
0.8 setlinewidth
1 setlinejoin

0 setlinecap

0 0 m
5 0 l

gsave
0.000 setgray
fill
grestore
stroke
grestore
} bind def
99.999 219.991 o
grestore
gsave
61.499000 213.358387 translate
0.000000 rotate
/NimbusSans-Regular 18.0 selectfont
0.000000 0.600875 moveto
/one glyphshow
10.007996 0.600875 moveto
/zero glyphshow
/NimbusSans-Regular 12.6 selectfont
20.170735 6.790625 moveto
/minus glyphshow
27.529130 6.790625 moveto
/three glyphshow
grestore
gsave
/o {
gsave
newpath
translate
0.8 setlinewidth
1 setlinejoin

0 setlinecap

0 0 m
5 0 l

gsave
0.000 setgray
fill
grestore
stroke
grestore
} bind def
99.999 258.49 o
grestore
gsave
61.499000 251.856848 translate
0.000000 rotate
/NimbusSans-Regular 18.0 selectfont
0.000000 0.600875 moveto
/one glyphshow
10.007996 0.600875 moveto
/zero glyphshow
/NimbusSans-Regular 12.6 selectfont
20.170735 6.790625 moveto
/minus glyphshow
27.529130 6.790625 moveto
/two glyphshow
grestore
gsave
/o {
gsave
newpath
translate
0.8 setlinewidth
1 setlinejoin

0 setlinecap

0 0 m
5 0 l

gsave
0.000 setgray
fill
grestore
stroke
grestore
} bind def
99.999 296.988 o
grestore
gsave
61.499000 290.355307 translate
0.000000 rotate
/NimbusSans-Regular 18.0 selectfont
0.000000 0.600875 moveto
/one glyphshow
10.007996 0.600875 moveto
/zero glyphshow
/NimbusSans-Regular 12.6 selectfont
20.170735 6.790625 moveto
/minus glyphshow
27.529130 6.790625 moveto
/one glyphshow
grestore
gsave
/o {
gsave
newpath
translate
0.8 setlinewidth
1 setlinejoin

0 setlinecap

0 0 m
5 0 l

gsave
0.000 setgray
fill
grestore
stroke
grestore
} bind def
99.999 335.487 o
grestore
gsave
68.499000 328.853768 translate
0.000000 rotate
/NimbusSans-Regular 18.0 selectfont
0.000000 0.600875 moveto
/one glyphshow
10.007996 0.600875 moveto
/zero glyphshow
/NimbusSans-Regular 12.6 selectfont
20.170735 6.790625 moveto
/zero glyphshow
grestore
gsave
/o {
gsave
newpath
translate
0.8 setlinewidth
1 setlinejoin

0 setlinecap

0 0 m
5 0 l

gsave
0.000 setgray
fill
grestore
stroke
grestore
} bind def
99.999 373.985 o
grestore
gsave
68.499000 367.352228 translate
0.000000 rotate
/NimbusSans-Regular 18.0 selectfont
0.000000 0.600875 moveto
/one glyphshow
10.007996 0.600875 moveto
/zero glyphshow
/NimbusSans-Regular 12.6 selectfont
20.170735 6.790625 moveto
/one glyphshow
grestore
gsave
/o {
gsave
newpath
translate
0.8 setlinewidth
1 setlinejoin

0 setlinecap

0 0 m
5 0 l

gsave
0.000 setgray
fill
grestore
stroke
grestore
} bind def
99.999 412.483 o
grestore
gsave
68.499000 405.850687 translate
0.000000 rotate
/NimbusSans-Regular 18.0 selectfont
0.000000 0.600875 moveto
/one glyphshow
10.007996 0.600875 moveto
/zero glyphshow
/NimbusSans-Regular 12.6 selectfont
20.170735 6.790625 moveto
/two glyphshow
grestore
gsave
/o {
gsave
newpath
translate
0.8 setlinewidth
1 setlinejoin

0 setlinecap

0 0 m
5 0 l

gsave
0.000 setgray
fill
grestore
stroke
grestore
} bind def
99.999 450.982 o
grestore
gsave
68.499000 444.349148 translate
0.000000 rotate
/NimbusSans-Regular 18.0 selectfont
0.000000 0.600875 moveto
/one glyphshow
10.007996 0.600875 moveto
/zero glyphshow
/NimbusSans-Regular 12.6 selectfont
20.170735 6.790625 moveto
/three glyphshow
grestore
gsave
/o {
gsave
newpath
translate
0.8 setlinewidth
1 setlinejoin

0 setlinecap

0 0 m
5 0 l

gsave
0.000 setgray
fill
grestore
stroke
grestore
} bind def
99.999 489.48 o
grestore
gsave
68.499000 482.847607 translate
0.000000 rotate
/NimbusSans-Regular 18.0 selectfont
0.000000 0.600875 moveto
/one glyphshow
10.007996 0.600875 moveto
/zero glyphshow
/NimbusSans-Regular 12.6 selectfont
20.170735 6.790625 moveto
/four glyphshow
grestore
gsave
/o {
gsave
newpath
translate
0.8 setlinewidth
1 setlinejoin

0 setlinecap

0 0 m
5 0 l

gsave
0.000 setgray
fill
grestore
stroke
grestore
} bind def
99.999 527.979 o
grestore
gsave
68.499000 521.346068 translate
0.000000 rotate
/NimbusSans-Regular 18.0 selectfont
0.000000 0.775875 moveto
/one glyphshow
10.007996 0.775875 moveto
/zero glyphshow
/NimbusSans-Regular 12.6 selectfont
20.170735 6.965625 moveto
/five glyphshow
grestore
0.600 setlinewidth
gsave
/o {
gsave
newpath
translate
0.6 setlinewidth
1 setlinejoin

0 setlinecap

0 0 m
3 0 l

gsave
0.000 setgray
fill
grestore
stroke
grestore
} bind def
99.999 77.5866 o
grestore
gsave
/o {
gsave
newpath
translate
0.6 setlinewidth
1 setlinejoin

0 setlinecap

0 0 m
3 0 l

gsave
0.000 setgray
fill
grestore
stroke
grestore
} bind def
99.999 84.3658 o
grestore
gsave
/o {
gsave
newpath
translate
0.6 setlinewidth
1 setlinejoin

0 setlinecap

0 0 m
3 0 l

gsave
0.000 setgray
fill
grestore
stroke
grestore
} bind def
99.999 89.1757 o
grestore
gsave
/o {
gsave
newpath
translate
0.6 setlinewidth
1 setlinejoin

0 setlinecap

0 0 m
3 0 l

gsave
0.000 setgray
fill
grestore
stroke
grestore
} bind def
99.999 92.9066 o
grestore
gsave
/o {
gsave
newpath
translate
0.6 setlinewidth
1 setlinejoin

0 setlinecap

0 0 m
3 0 l

gsave
0.000 setgray
fill
grestore
stroke
grestore
} bind def
99.999 95.955 o
grestore
gsave
/o {
gsave
newpath
translate
0.6 setlinewidth
1 setlinejoin

0 setlinecap

0 0 m
3 0 l

gsave
0.000 setgray
fill
grestore
stroke
grestore
} bind def
99.999 98.5323 o
grestore
gsave
/o {
gsave
newpath
translate
0.6 setlinewidth
1 setlinejoin

0 setlinecap

0 0 m
3 0 l

gsave
0.000 setgray
fill
grestore
stroke
grestore
} bind def
99.999 100.765 o
grestore
gsave
/o {
gsave
newpath
translate
0.6 setlinewidth
1 setlinejoin

0 setlinecap

0 0 m
3 0 l

gsave
0.000 setgray
fill
grestore
stroke
grestore
} bind def
99.999 102.734 o
grestore
gsave
/o {
gsave
newpath
translate
0.6 setlinewidth
1 setlinejoin

0 setlinecap

0 0 m
3 0 l

gsave
0.000 setgray
fill
grestore
stroke
grestore
} bind def
99.999 116.085 o
grestore
gsave
/o {
gsave
newpath
translate
0.6 setlinewidth
1 setlinejoin

0 setlinecap

0 0 m
3 0 l

gsave
0.000 setgray
fill
grestore
stroke
grestore
} bind def
99.999 122.864 o
grestore
gsave
/o {
gsave
newpath
translate
0.6 setlinewidth
1 setlinejoin

0 setlinecap

0 0 m
3 0 l

gsave
0.000 setgray
fill
grestore
stroke
grestore
} bind def
99.999 127.674 o
grestore
gsave
/o {
gsave
newpath
translate
0.6 setlinewidth
1 setlinejoin

0 setlinecap

0 0 m
3 0 l

gsave
0.000 setgray
fill
grestore
stroke
grestore
} bind def
99.999 131.405 o
grestore
gsave
/o {
gsave
newpath
translate
0.6 setlinewidth
1 setlinejoin

0 setlinecap

0 0 m
3 0 l

gsave
0.000 setgray
fill
grestore
stroke
grestore
} bind def
99.999 134.453 o
grestore
gsave
/o {
gsave
newpath
translate
0.6 setlinewidth
1 setlinejoin

0 setlinecap

0 0 m
3 0 l

gsave
0.000 setgray
fill
grestore
stroke
grestore
} bind def
99.999 137.031 o
grestore
gsave
/o {
gsave
newpath
translate
0.6 setlinewidth
1 setlinejoin

0 setlinecap

0 0 m
3 0 l

gsave
0.000 setgray
fill
grestore
stroke
grestore
} bind def
99.999 139.263 o
grestore
gsave
/o {
gsave
newpath
translate
0.6 setlinewidth
1 setlinejoin

0 setlinecap

0 0 m
3 0 l

gsave
0.000 setgray
fill
grestore
stroke
grestore
} bind def
99.999 141.233 o
grestore
gsave
/o {
gsave
newpath
translate
0.6 setlinewidth
1 setlinejoin

0 setlinecap

0 0 m
3 0 l

gsave
0.000 setgray
fill
grestore
stroke
grestore
} bind def
99.999 154.583 o
grestore
gsave
/o {
gsave
newpath
translate
0.6 setlinewidth
1 setlinejoin

0 setlinecap

0 0 m
3 0 l

gsave
0.000 setgray
fill
grestore
stroke
grestore
} bind def
99.999 161.363 o
grestore
gsave
/o {
gsave
newpath
translate
0.6 setlinewidth
1 setlinejoin

0 setlinecap

0 0 m
3 0 l

gsave
0.000 setgray
fill
grestore
stroke
grestore
} bind def
99.999 166.173 o
grestore
gsave
/o {
gsave
newpath
translate
0.6 setlinewidth
1 setlinejoin

0 setlinecap

0 0 m
3 0 l

gsave
0.000 setgray
fill
grestore
stroke
grestore
} bind def
99.999 169.904 o
grestore
gsave
/o {
gsave
newpath
translate
0.6 setlinewidth
1 setlinejoin

0 setlinecap

0 0 m
3 0 l

gsave
0.000 setgray
fill
grestore
stroke
grestore
} bind def
99.999 172.952 o
grestore
gsave
/o {
gsave
newpath
translate
0.6 setlinewidth
1 setlinejoin

0 setlinecap

0 0 m
3 0 l

gsave
0.000 setgray
fill
grestore
stroke
grestore
} bind def
99.999 175.529 o
grestore
gsave
/o {
gsave
newpath
translate
0.6 setlinewidth
1 setlinejoin

0 setlinecap

0 0 m
3 0 l

gsave
0.000 setgray
fill
grestore
stroke
grestore
} bind def
99.999 177.762 o
grestore
gsave
/o {
gsave
newpath
translate
0.6 setlinewidth
1 setlinejoin

0 setlinecap

0 0 m
3 0 l

gsave
0.000 setgray
fill
grestore
stroke
grestore
} bind def
99.999 179.731 o
grestore
gsave
/o {
gsave
newpath
translate
0.6 setlinewidth
1 setlinejoin

0 setlinecap

0 0 m
3 0 l

gsave
0.000 setgray
fill
grestore
stroke
grestore
} bind def
99.999 193.082 o
grestore
gsave
/o {
gsave
newpath
translate
0.6 setlinewidth
1 setlinejoin

0 setlinecap

0 0 m
3 0 l

gsave
0.000 setgray
fill
grestore
stroke
grestore
} bind def
99.999 199.861 o
grestore
gsave
/o {
gsave
newpath
translate
0.6 setlinewidth
1 setlinejoin

0 setlinecap

0 0 m
3 0 l

gsave
0.000 setgray
fill
grestore
stroke
grestore
} bind def
99.999 204.671 o
grestore
gsave
/o {
gsave
newpath
translate
0.6 setlinewidth
1 setlinejoin

0 setlinecap

0 0 m
3 0 l

gsave
0.000 setgray
fill
grestore
stroke
grestore
} bind def
99.999 208.402 o
grestore
gsave
/o {
gsave
newpath
translate
0.6 setlinewidth
1 setlinejoin

0 setlinecap

0 0 m
3 0 l

gsave
0.000 setgray
fill
grestore
stroke
grestore
} bind def
99.999 211.45 o
grestore
gsave
/o {
gsave
newpath
translate
0.6 setlinewidth
1 setlinejoin

0 setlinecap

0 0 m
3 0 l

gsave
0.000 setgray
fill
grestore
stroke
grestore
} bind def
99.999 214.028 o
grestore
gsave
/o {
gsave
newpath
translate
0.6 setlinewidth
1 setlinejoin

0 setlinecap

0 0 m
3 0 l

gsave
0.000 setgray
fill
grestore
stroke
grestore
} bind def
99.999 216.26 o
grestore
gsave
/o {
gsave
newpath
translate
0.6 setlinewidth
1 setlinejoin

0 setlinecap

0 0 m
3 0 l

gsave
0.000 setgray
fill
grestore
stroke
grestore
} bind def
99.999 218.23 o
grestore
gsave
/o {
gsave
newpath
translate
0.6 setlinewidth
1 setlinejoin

0 setlinecap

0 0 m
3 0 l

gsave
0.000 setgray
fill
grestore
stroke
grestore
} bind def
99.999 231.58 o
grestore
gsave
/o {
gsave
newpath
translate
0.6 setlinewidth
1 setlinejoin

0 setlinecap

0 0 m
3 0 l

gsave
0.000 setgray
fill
grestore
stroke
grestore
} bind def
99.999 238.36 o
grestore
gsave
/o {
gsave
newpath
translate
0.6 setlinewidth
1 setlinejoin

0 setlinecap

0 0 m
3 0 l

gsave
0.000 setgray
fill
grestore
stroke
grestore
} bind def
99.999 243.17 o
grestore
gsave
/o {
gsave
newpath
translate
0.6 setlinewidth
1 setlinejoin

0 setlinecap

0 0 m
3 0 l

gsave
0.000 setgray
fill
grestore
stroke
grestore
} bind def
99.999 246.9 o
grestore
gsave
/o {
gsave
newpath
translate
0.6 setlinewidth
1 setlinejoin

0 setlinecap

0 0 m
3 0 l

gsave
0.000 setgray
fill
grestore
stroke
grestore
} bind def
99.999 249.949 o
grestore
gsave
/o {
gsave
newpath
translate
0.6 setlinewidth
1 setlinejoin

0 setlinecap

0 0 m
3 0 l

gsave
0.000 setgray
fill
grestore
stroke
grestore
} bind def
99.999 252.526 o
grestore
gsave
/o {
gsave
newpath
translate
0.6 setlinewidth
1 setlinejoin

0 setlinecap

0 0 m
3 0 l

gsave
0.000 setgray
fill
grestore
stroke
grestore
} bind def
99.999 254.759 o
grestore
gsave
/o {
gsave
newpath
translate
0.6 setlinewidth
1 setlinejoin

0 setlinecap

0 0 m
3 0 l

gsave
0.000 setgray
fill
grestore
stroke
grestore
} bind def
99.999 256.728 o
grestore
gsave
/o {
gsave
newpath
translate
0.6 setlinewidth
1 setlinejoin

0 setlinecap

0 0 m
3 0 l

gsave
0.000 setgray
fill
grestore
stroke
grestore
} bind def
99.999 270.079 o
grestore
gsave
/o {
gsave
newpath
translate
0.6 setlinewidth
1 setlinejoin

0 setlinecap

0 0 m
3 0 l

gsave
0.000 setgray
fill
grestore
stroke
grestore
} bind def
99.999 276.858 o
grestore
gsave
/o {
gsave
newpath
translate
0.6 setlinewidth
1 setlinejoin

0 setlinecap

0 0 m
3 0 l

gsave
0.000 setgray
fill
grestore
stroke
grestore
} bind def
99.999 281.668 o
grestore
gsave
/o {
gsave
newpath
translate
0.6 setlinewidth
1 setlinejoin

0 setlinecap

0 0 m
3 0 l

gsave
0.000 setgray
fill
grestore
stroke
grestore
} bind def
99.999 285.399 o
grestore
gsave
/o {
gsave
newpath
translate
0.6 setlinewidth
1 setlinejoin

0 setlinecap

0 0 m
3 0 l

gsave
0.000 setgray
fill
grestore
stroke
grestore
} bind def
99.999 288.447 o
grestore
gsave
/o {
gsave
newpath
translate
0.6 setlinewidth
1 setlinejoin

0 setlinecap

0 0 m
3 0 l

gsave
0.000 setgray
fill
grestore
stroke
grestore
} bind def
99.999 291.025 o
grestore
gsave
/o {
gsave
newpath
translate
0.6 setlinewidth
1 setlinejoin

0 setlinecap

0 0 m
3 0 l

gsave
0.000 setgray
fill
grestore
stroke
grestore
} bind def
99.999 293.257 o
grestore
gsave
/o {
gsave
newpath
translate
0.6 setlinewidth
1 setlinejoin

0 setlinecap

0 0 m
3 0 l

gsave
0.000 setgray
fill
grestore
stroke
grestore
} bind def
99.999 295.227 o
grestore
gsave
/o {
gsave
newpath
translate
0.6 setlinewidth
1 setlinejoin

0 setlinecap

0 0 m
3 0 l

gsave
0.000 setgray
fill
grestore
stroke
grestore
} bind def
99.999 308.577 o
grestore
gsave
/o {
gsave
newpath
translate
0.6 setlinewidth
1 setlinejoin

0 setlinecap

0 0 m
3 0 l

gsave
0.000 setgray
fill
grestore
stroke
grestore
} bind def
99.999 315.357 o
grestore
gsave
/o {
gsave
newpath
translate
0.6 setlinewidth
1 setlinejoin

0 setlinecap

0 0 m
3 0 l

gsave
0.000 setgray
fill
grestore
stroke
grestore
} bind def
99.999 320.167 o
grestore
gsave
/o {
gsave
newpath
translate
0.6 setlinewidth
1 setlinejoin

0 setlinecap

0 0 m
3 0 l

gsave
0.000 setgray
fill
grestore
stroke
grestore
} bind def
99.999 323.897 o
grestore
gsave
/o {
gsave
newpath
translate
0.6 setlinewidth
1 setlinejoin

0 setlinecap

0 0 m
3 0 l

gsave
0.000 setgray
fill
grestore
stroke
grestore
} bind def
99.999 326.946 o
grestore
gsave
/o {
gsave
newpath
translate
0.6 setlinewidth
1 setlinejoin

0 setlinecap

0 0 m
3 0 l

gsave
0.000 setgray
fill
grestore
stroke
grestore
} bind def
99.999 329.523 o
grestore
gsave
/o {
gsave
newpath
translate
0.6 setlinewidth
1 setlinejoin

0 setlinecap

0 0 m
3 0 l

gsave
0.000 setgray
fill
grestore
stroke
grestore
} bind def
99.999 331.756 o
grestore
gsave
/o {
gsave
newpath
translate
0.6 setlinewidth
1 setlinejoin

0 setlinecap

0 0 m
3 0 l

gsave
0.000 setgray
fill
grestore
stroke
grestore
} bind def
99.999 333.725 o
grestore
gsave
/o {
gsave
newpath
translate
0.6 setlinewidth
1 setlinejoin

0 setlinecap

0 0 m
3 0 l

gsave
0.000 setgray
fill
grestore
stroke
grestore
} bind def
99.999 347.076 o
grestore
gsave
/o {
gsave
newpath
translate
0.6 setlinewidth
1 setlinejoin

0 setlinecap

0 0 m
3 0 l

gsave
0.000 setgray
fill
grestore
stroke
grestore
} bind def
99.999 353.855 o
grestore
gsave
/o {
gsave
newpath
translate
0.6 setlinewidth
1 setlinejoin

0 setlinecap

0 0 m
3 0 l

gsave
0.000 setgray
fill
grestore
stroke
grestore
} bind def
99.999 358.665 o
grestore
gsave
/o {
gsave
newpath
translate
0.6 setlinewidth
1 setlinejoin

0 setlinecap

0 0 m
3 0 l

gsave
0.000 setgray
fill
grestore
stroke
grestore
} bind def
99.999 362.396 o
grestore
gsave
/o {
gsave
newpath
translate
0.6 setlinewidth
1 setlinejoin

0 setlinecap

0 0 m
3 0 l

gsave
0.000 setgray
fill
grestore
stroke
grestore
} bind def
99.999 365.444 o
grestore
gsave
/o {
gsave
newpath
translate
0.6 setlinewidth
1 setlinejoin

0 setlinecap

0 0 m
3 0 l

gsave
0.000 setgray
fill
grestore
stroke
grestore
} bind def
99.999 368.022 o
grestore
gsave
/o {
gsave
newpath
translate
0.6 setlinewidth
1 setlinejoin

0 setlinecap

0 0 m
3 0 l

gsave
0.000 setgray
fill
grestore
stroke
grestore
} bind def
99.999 370.254 o
grestore
gsave
/o {
gsave
newpath
translate
0.6 setlinewidth
1 setlinejoin

0 setlinecap

0 0 m
3 0 l

gsave
0.000 setgray
fill
grestore
stroke
grestore
} bind def
99.999 372.223 o
grestore
gsave
/o {
gsave
newpath
translate
0.6 setlinewidth
1 setlinejoin

0 setlinecap

0 0 m
3 0 l

gsave
0.000 setgray
fill
grestore
stroke
grestore
} bind def
99.999 385.574 o
grestore
gsave
/o {
gsave
newpath
translate
0.6 setlinewidth
1 setlinejoin

0 setlinecap

0 0 m
3 0 l

gsave
0.000 setgray
fill
grestore
stroke
grestore
} bind def
99.999 392.353 o
grestore
gsave
/o {
gsave
newpath
translate
0.6 setlinewidth
1 setlinejoin

0 setlinecap

0 0 m
3 0 l

gsave
0.000 setgray
fill
grestore
stroke
grestore
} bind def
99.999 397.163 o
grestore
gsave
/o {
gsave
newpath
translate
0.6 setlinewidth
1 setlinejoin

0 setlinecap

0 0 m
3 0 l

gsave
0.000 setgray
fill
grestore
stroke
grestore
} bind def
99.999 400.894 o
grestore
gsave
/o {
gsave
newpath
translate
0.6 setlinewidth
1 setlinejoin

0 setlinecap

0 0 m
3 0 l

gsave
0.000 setgray
fill
grestore
stroke
grestore
} bind def
99.999 403.943 o
grestore
gsave
/o {
gsave
newpath
translate
0.6 setlinewidth
1 setlinejoin

0 setlinecap

0 0 m
3 0 l

gsave
0.000 setgray
fill
grestore
stroke
grestore
} bind def
99.999 406.52 o
grestore
gsave
/o {
gsave
newpath
translate
0.6 setlinewidth
1 setlinejoin

0 setlinecap

0 0 m
3 0 l

gsave
0.000 setgray
fill
grestore
stroke
grestore
} bind def
99.999 408.753 o
grestore
gsave
/o {
gsave
newpath
translate
0.6 setlinewidth
1 setlinejoin

0 setlinecap

0 0 m
3 0 l

gsave
0.000 setgray
fill
grestore
stroke
grestore
} bind def
99.999 410.722 o
grestore
gsave
/o {
gsave
newpath
translate
0.6 setlinewidth
1 setlinejoin

0 setlinecap

0 0 m
3 0 l

gsave
0.000 setgray
fill
grestore
stroke
grestore
} bind def
99.999 424.073 o
grestore
gsave
/o {
gsave
newpath
translate
0.6 setlinewidth
1 setlinejoin

0 setlinecap

0 0 m
3 0 l

gsave
0.000 setgray
fill
grestore
stroke
grestore
} bind def
99.999 430.852 o
grestore
gsave
/o {
gsave
newpath
translate
0.6 setlinewidth
1 setlinejoin

0 setlinecap

0 0 m
3 0 l

gsave
0.000 setgray
fill
grestore
stroke
grestore
} bind def
99.999 435.662 o
grestore
gsave
/o {
gsave
newpath
translate
0.6 setlinewidth
1 setlinejoin

0 setlinecap

0 0 m
3 0 l

gsave
0.000 setgray
fill
grestore
stroke
grestore
} bind def
99.999 439.393 o
grestore
gsave
/o {
gsave
newpath
translate
0.6 setlinewidth
1 setlinejoin

0 setlinecap

0 0 m
3 0 l

gsave
0.000 setgray
fill
grestore
stroke
grestore
} bind def
99.999 442.441 o
grestore
gsave
/o {
gsave
newpath
translate
0.6 setlinewidth
1 setlinejoin

0 setlinecap

0 0 m
3 0 l

gsave
0.000 setgray
fill
grestore
stroke
grestore
} bind def
99.999 445.018 o
grestore
gsave
/o {
gsave
newpath
translate
0.6 setlinewidth
1 setlinejoin

0 setlinecap

0 0 m
3 0 l

gsave
0.000 setgray
fill
grestore
stroke
grestore
} bind def
99.999 447.251 o
grestore
gsave
/o {
gsave
newpath
translate
0.6 setlinewidth
1 setlinejoin

0 setlinecap

0 0 m
3 0 l

gsave
0.000 setgray
fill
grestore
stroke
grestore
} bind def
99.999 449.22 o
grestore
gsave
/o {
gsave
newpath
translate
0.6 setlinewidth
1 setlinejoin

0 setlinecap

0 0 m
3 0 l

gsave
0.000 setgray
fill
grestore
stroke
grestore
} bind def
99.999 462.571 o
grestore
gsave
/o {
gsave
newpath
translate
0.6 setlinewidth
1 setlinejoin

0 setlinecap

0 0 m
3 0 l

gsave
0.000 setgray
fill
grestore
stroke
grestore
} bind def
99.999 469.35 o
grestore
gsave
/o {
gsave
newpath
translate
0.6 setlinewidth
1 setlinejoin

0 setlinecap

0 0 m
3 0 l

gsave
0.000 setgray
fill
grestore
stroke
grestore
} bind def
99.999 474.16 o
grestore
gsave
/o {
gsave
newpath
translate
0.6 setlinewidth
1 setlinejoin

0 setlinecap

0 0 m
3 0 l

gsave
0.000 setgray
fill
grestore
stroke
grestore
} bind def
99.999 477.891 o
grestore
gsave
/o {
gsave
newpath
translate
0.6 setlinewidth
1 setlinejoin

0 setlinecap

0 0 m
3 0 l

gsave
0.000 setgray
fill
grestore
stroke
grestore
} bind def
99.999 480.94 o
grestore
gsave
/o {
gsave
newpath
translate
0.6 setlinewidth
1 setlinejoin

0 setlinecap

0 0 m
3 0 l

gsave
0.000 setgray
fill
grestore
stroke
grestore
} bind def
99.999 483.517 o
grestore
gsave
/o {
gsave
newpath
translate
0.6 setlinewidth
1 setlinejoin

0 setlinecap

0 0 m
3 0 l

gsave
0.000 setgray
fill
grestore
stroke
grestore
} bind def
99.999 485.75 o
grestore
gsave
/o {
gsave
newpath
translate
0.6 setlinewidth
1 setlinejoin

0 setlinecap

0 0 m
3 0 l

gsave
0.000 setgray
fill
grestore
stroke
grestore
} bind def
99.999 487.719 o
grestore
gsave
/o {
gsave
newpath
translate
0.6 setlinewidth
1 setlinejoin

0 setlinecap

0 0 m
3 0 l

gsave
0.000 setgray
fill
grestore
stroke
grestore
} bind def
99.999 501.07 o
grestore
gsave
/o {
gsave
newpath
translate
0.6 setlinewidth
1 setlinejoin

0 setlinecap

0 0 m
3 0 l

gsave
0.000 setgray
fill
grestore
stroke
grestore
} bind def
99.999 507.849 o
grestore
gsave
/o {
gsave
newpath
translate
0.6 setlinewidth
1 setlinejoin

0 setlinecap

0 0 m
3 0 l

gsave
0.000 setgray
fill
grestore
stroke
grestore
} bind def
99.999 512.659 o
grestore
gsave
/o {
gsave
newpath
translate
0.6 setlinewidth
1 setlinejoin

0 setlinecap

0 0 m
3 0 l

gsave
0.000 setgray
fill
grestore
stroke
grestore
} bind def
99.999 516.39 o
grestore
gsave
/o {
gsave
newpath
translate
0.6 setlinewidth
1 setlinejoin

0 setlinecap

0 0 m
3 0 l

gsave
0.000 setgray
fill
grestore
stroke
grestore
} bind def
99.999 519.438 o
grestore
gsave
/o {
gsave
newpath
translate
0.6 setlinewidth
1 setlinejoin

0 setlinecap

0 0 m
3 0 l

gsave
0.000 setgray
fill
grestore
stroke
grestore
} bind def
99.999 522.015 o
grestore
gsave
/o {
gsave
newpath
translate
0.6 setlinewidth
1 setlinejoin

0 setlinecap

0 0 m
3 0 l

gsave
0.000 setgray
fill
grestore
stroke
grestore
} bind def
99.999 524.248 o
grestore
gsave
/o {
gsave
newpath
translate
0.6 setlinewidth
1 setlinejoin

0 setlinecap

0 0 m
3 0 l

gsave
0.000 setgray
fill
grestore
stroke
grestore
} bind def
99.999 526.217 o
grestore
gsave
52.499000 260.488120 translate
90.000000 rotate
/NimbusSans-Regular 20.0 selectfont
0.000000 0.375000 moveto
/L glyphshow
11.119995 0.375000 moveto
/o glyphshow
22.239990 0.375000 moveto
/c glyphshow
32.239990 0.375000 moveto
/a glyphshow
43.359985 0.375000 moveto
/l glyphshow
47.799988 0.375000 moveto
/space glyphshow
53.359985 0.375000 moveto
/p glyphshow
/NimbusSans-Regular 14.0 selectfont
64.651918 -2.572500 moveto
/zero glyphshow
grestore
/NimbusSans-BoldItalic 18.000 selectfont
gsave

130.998690 491.614179 translate
0.000000 rotate
0.000000 0 m /A glyphshow
12.996002 0 m /T glyphshow
23.994003 0 m /L glyphshow
34.992004 0 m /A glyphshow
47.988007 0 m /S glyphshow
59.994003 0 m /space glyphshow
grestore
/NimbusSans-Regular 18.000 selectfont
gsave

195.998690 491.614179 translate
0.000000 rotate
0.000000 0 m /I glyphshow
5.003998 0 m /n glyphshow
15.011993 0 m /t glyphshow
20.015991 0 m /e glyphshow
30.023987 0 m /r glyphshow
36.017975 0 m /n glyphshow
46.025970 0 m /a glyphshow
56.033966 0 m /l glyphshow
grestore
gsave
130.998690 472.801679 translate
0.000000 rotate
/DejaVuSans 18.0 selectfont
0.000000 0.326250 moveto
/radical glyphshow
/NimbusSans-Regular 18.0 selectfont
13.719727 0.031250 moveto
/s glyphshow
27.968527 0.326250 moveto
/equal glyphshow
41.479321 0.326250 moveto
/space glyphshow
46.483319 0.326250 moveto
/one glyphshow
56.491315 0.326250 moveto
/three glyphshow
66.499310 0.326250 moveto
/space glyphshow
71.503308 0.326250 moveto
/T glyphshow
82.501309 0.326250 moveto
/e glyphshow
92.509305 0.326250 moveto
/V glyphshow
104.515302 0.326250 moveto
/comma glyphshow
109.519299 0.326250 moveto
/space glyphshow
114.523297 0.326250 moveto
/one glyphshow
124.531293 0.326250 moveto
/three glyphshow
134.539288 0.326250 moveto
/nine glyphshow
149.545235 0.326250 moveto
/f glyphshow
154.549233 0.326250 moveto
/b glyphshow
/NimbusSans-Regular 12.6 selectfont
164.711972 6.516000 moveto
/minus glyphshow
172.070368 6.516000 moveto
/one glyphshow
11.4697265625 13.75 13.5 1.125 rectfill
grestore
1.000 setlinewidth
0 setlinejoin
2 setlinecap
gsave
99.999 65.99736 m
99.999 527.97888 l
stroke
grestore
gsave
719.9928 65.99736 m
719.9928 527.97888 l
stroke
grestore
gsave
99.999 65.99736 m
719.9928 65.99736 l
stroke
grestore
gsave
99.999 527.97888 m
719.9928 527.97888 l
stroke
grestore
0.800 setlinewidth
1 setlinejoin
0 setlinecap
gsave
/o {
gsave
newpath
translate
0.8 setlinewidth
1 setlinejoin

0 setlinecap

-0 0 m
-5 0 l

gsave
0.000 setgray
fill
grestore
stroke
grestore
} bind def
719.993 335.487 o
grestore
gsave
723.492800 328.853768 translate
0.000000 rotate
/NimbusSans-Regular 18.0 selectfont
0.000000 0.843750 moveto
/zero glyphshow
10.007996 0.843750 moveto
/space glyphshow
15.011993 0.843750 moveto
/sigma glyphshow
grestore
gsave
/o {
gsave
newpath
translate
0.8 setlinewidth
1 setlinejoin

0 setlinecap

-0 0 m
-5 0 l

gsave
0.000 setgray
fill
grestore
stroke
grestore
} bind def
719.993 316.294 o
grestore
gsave
723.492800 309.661687 translate
0.000000 rotate
/NimbusSans-Regular 18.0 selectfont
0.000000 0.843750 moveto
/one glyphshow
10.007996 0.843750 moveto
/space glyphshow
15.011993 0.843750 moveto
/sigma glyphshow
grestore
gsave
/o {
gsave
newpath
translate
0.8 setlinewidth
1 setlinejoin

0 setlinecap

-0 0 m
-5 0 l

gsave
0.000 setgray
fill
grestore
stroke
grestore
} bind def
719.993 283.822 o
grestore
gsave
723.492800 277.189370 translate
0.000000 rotate
/NimbusSans-Regular 18.0 selectfont
0.000000 0.843750 moveto
/two glyphshow
10.007996 0.843750 moveto
/space glyphshow
15.011993 0.843750 moveto
/sigma glyphshow
grestore
gsave
/o {
gsave
newpath
translate
0.8 setlinewidth
1 setlinejoin

0 setlinecap

-0 0 m
-5 0 l

gsave
0.000 setgray
fill
grestore
stroke
grestore
} bind def
719.993 236.597 o
grestore
gsave
723.492800 229.963965 translate
0.000000 rotate
/NimbusSans-Regular 18.0 selectfont
0.000000 0.843750 moveto
/three glyphshow
10.007996 0.843750 moveto
/space glyphshow
15.011993 0.843750 moveto
/sigma glyphshow
grestore
gsave
/o {
gsave
newpath
translate
0.8 setlinewidth
1 setlinejoin

0 setlinecap

-0 0 m
-5 0 l

gsave
0.000 setgray
fill
grestore
stroke
grestore
} bind def
719.993 173.858 o
grestore
gsave
723.492800 167.225494 translate
0.000000 rotate
/NimbusSans-Regular 18.0 selectfont
0.000000 0.843750 moveto
/four glyphshow
10.007996 0.843750 moveto
/space glyphshow
15.011993 0.843750 moveto
/sigma glyphshow
grestore
gsave
/o {
gsave
newpath
translate
0.8 setlinewidth
1 setlinejoin

0 setlinecap

-0 0 m
-5 0 l

gsave
0.000 setgray
fill
grestore
stroke
grestore
} bind def
719.993 95.194 o
grestore
gsave
723.492800 88.561176 translate
0.000000 rotate
/NimbusSans-Regular 18.0 selectfont
0.000000 0.093750 moveto
/five glyphshow
10.007996 0.093750 moveto
/space glyphshow
15.011993 0.093750 moveto
/sigma glyphshow
grestore

end
showpage
