job_m_042_20bins_auto_p00_stats,1.1950724124908447,0.8467557430267334,0.5903438329696655,0.42537540197372437,0.31685274839401245,0.024984185789019498,0.019404782524744073,0.014680588483291372,0.011329760982376076,0.008981581706424394
job_m_042_20bins_auto_p02_stats,1.2420061826705933,0.8792577385902405,0.6127469539642334,0.441518098115921,0.3288770616054535,0.02566957097457266,0.019964380034061632,0.015116167072814244,0.01166908234931999,0.009247603173499905
job_m_042_20bins_auto_p04_stats,1.2433029413223267,0.8777487874031067,0.6108367443084717,0.4401416778564453,0.327851802110672,0.02568829838102611,0.01993858663263864,0.015079203888697679,0.011640248709751236,0.009224978305084952
job_m_042_20bins_auto_p06_stats,1.2093220949172974,0.8536179661750793,0.5940328240394592,0.4280335009098053,0.3188326954841614,0.02519384615956305,0.019523636771463994,0.014752624852252018,0.011385809216815835,0.009025487027586843
job_m_042_20bins_auto_p08_stats,1.1699516773223877,0.8239225745201111,0.5728214979171753,0.41274958848953247,0.30744805932044983,0.024611204017542705,0.01900656921045002,0.014336732121513216,0.0110625907353661,0.008772483510784147
job_m_042_20bins_auto_p10_stats,1.1394041776657104,0.8018272519111633,0.5572556853294373,0.4015335440635681,0.29909345507621765,0.024151782101192232,0.01861717811622053,0.01402891418402055,0.01082393824888408,0.008585968980746362
job_m_042_20bins_auto_p12_stats,1.117111086845398,0.7840933799743652,0.5442049503326416,0.3921297788619995,0.2920888066291809,0.023812386713226993,0.018301742805703132,0.013769112179774882,0.010622889692594529,0.008429036441172216
job_m_042_20bins_auto_p14_stats,1.0876175165176392,0.7606413960456848,0.5270333886146545,0.37975671887397766,0.28287237882614136,0.02335795893309596,0.017880583643173235,0.01342486949107768,0.010357022116612278,0.008221776493350636
job_m_042_20bins_auto_p16_stats,1.0694798231124878,0.7481114864349365,0.5184435844421387,0.37356728315353394,0.27826201915740967,0.02307540318799006,0.017653677286165567,0.013251635150456997,0.010223453574638231,0.00811776699693369
job_m_042_20bins_auto_p18_stats,1.029292106628418,0.7185184955596924,0.49752914905548096,0.35849729180336,0.26703670620918274,0.022440822731669398,0.017112494311684837,0.012826945728840189,0.009896638124626643,0.007863597378592648
job_m_042_20bins_auto_p20_stats,0.9964576363563538,0.6936315894126892,0.47916319966316223,0.34526360034942627,0.25717923045158386,0.021913506073909947,0.016651573285547394,0.012450592641564473,0.009607761162968085,0.00763931119286885
job_m_042_20bins_auto_p22_stats,0.9863225221633911,0.6854314208030701,0.4730692505836487,0.34087255597114563,0.2539084553718567,0.021749108918710656,0.01649852900187725,0.012325006069373874,0.009511518272466334,0.007564666007893208
job_m_042_20bins_auto_p24_stats,0.9567954540252686,0.6608031988143921,0.45445677638053894,0.32746124267578125,0.24391865730285645,0.021265732122213454,0.01603535524592937,0.011939228222307377,0.00921635683228488,0.007335982030050504
job_m_042_20bins_auto_p26_stats,0.9331789016723633,0.6423577666282654,0.4411045014858246,0.31784018874168396,0.23675213754177094,0.020874316479691665,0.01568496900981604,0.011660420143326581,0.009003483213230782,0.007171277952199138
job_m_042_20bins_auto_p28_stats,0.9385659098625183,0.6429855227470398,0.44052305817604065,0.3174212574958801,0.23644007742404938,0.020963977871266807,0.01569694320595965,0.011648239814221781,0.00899419250446287,0.0071640936842338005
job_m_042_20bins_auto_p30_stats,0.9380096793174744,0.6389560699462891,0.4366340637207031,0.3146190047264099,0.2343527376651764,0.020954730348920085,0.01562002220983121,0.011566687017244115,0.008932000213653464,0.007116012239791817
job_m_042_20bins_auto_p32_stats,0.956436812877655,0.6473678946495056,0.4411829113960266,0.31789669394493103,0.23679421842098236,0.021259820120160013,0.01578043792476895,0.011662062457348516,0.00900473620102552,0.0071722466618407265
job_m_042_20bins_auto_p34_stats,0.964782178401947,0.6491495370864868,0.4413846731185913,0.3180420994758606,0.23690252006053925,0.021397134163032253,0.015814333894944792,0.011666288129783675,0.009007960379475688,0.0071747396992794515
job_m_042_20bins_auto_p36_stats,1.0067099332809448,0.6765508055686951,0.4598328769207001,0.33133503794670105,0.2468041479587555,0.022079019430492283,0.01633212567501531,0.012050999924906698,0.00930180082182322,0.007402144164774607
job_m_042_20bins_auto_p38_stats,1.060389757156372,0.7108952403068542,0.4824313819408417,0.3476184904575348,0.25893333554267883,0.022932899561553994,0.01697187315565374,0.012517798594879092,0.009659295203556887,0.007679296787349903
job_m_042_20bins_auto_p40_stats,1.122040867805481,0.7523120641708374,0.5104131102561951,0.367780864238739,0.27395185828208923,0.02388774038433716,0.01772989367015247,0.013089055256523697,0.010098235745925067,0.00802032964454409
job_m_042_20bins_auto_p42_stats,1.1847385168075562,0.788787305355072,0.5343031883239746,0.3849950134754181,0.28677427768707275,0.024831275712161625,0.01838548773878068,0.01357094404867723,0.010469766449075206,0.008309630414114783
job_m_042_20bins_auto_p44_stats,1.2919446229934692,0.859063982963562,0.5814135670661926,0.41894063353538513,0.312059611082077,0.026382763658940267,0.01961769273028106,0.014505691671646384,0.011193792420938261,0.008875127475547393
job_m_042_20bins_auto_p46_stats,1.4187252521514893,0.9381497502326965,0.6344625353813171,0.45716536045074463,0.3405323624610901,0.028121719357980097,0.020957059300653613,0.015534071952730261,0.011995575798310778,0.009504053755267444
job_m_042_20bins_auto_p48_stats,1.5305495262145996,1.016060709953308,0.6878516674041748,0.4956352114677429,0.36918771266937256,0.02957434206496002,0.022229293873486565,0.016543760117035327,0.012788283466276595,0.0101287107274869
job_m_042_20bins_auto_p50_stats,1.6644864082336426,1.1452018022537231,0.7776735424995422,0.560356855392456,0.4173974096775055,0.031220429608599137,0.024239475093230756,0.018186909266586608,0.014090418249859113,0.011161123348910267
