job_m_051_20bins_auto_p00_stats,0.8793104887008667,0.6341434121131897,0.4470359683036804,0.32211413979530334,0.2399357110261917,0.0377096871802656,0.030046734494518446,0.02318225631859369,0.018034323285885348,0.014376107263170245
job_m_051_20bins_auto_p02_stats,0.8164992332458496,0.5869879722595215,0.41304147243499756,0.2976192235946655,0.22168999910354614,0.03587661555519914,0.02840610020089596,0.021828664881615823,0.016967296965810282,0.013533018755647781
job_m_051_20bins_auto_p04_stats,0.7667098045349121,0.5495481491088867,0.38601741194725037,0.278146892786026,0.20718547701835632,0.034362179209104615,0.027061731145532193,0.020727788254809264,0.016105024589321476,0.012854577919210979
job_m_051_20bins_auto_p06_stats,0.7381133437156677,0.5275550484657288,0.3699517250061035,0.26657068729400635,0.1985626071691513,0.033466846379430544,0.026254299235136145,0.020062696266310194,0.01558643664113142,0.012447762039659648
job_m_051_20bins_auto_p08_stats,0.724625289440155,0.5166786909103394,0.36182457208633423,0.2607146203517914,0.1942005604505539,0.033037919934401805,0.02585006267820169,0.01972318999814113,0.015322387071667639,0.012240969804451409
job_m_051_20bins_auto_p10_stats,0.7126060724258423,0.5065581798553467,0.3541235029697418,0.25516557693481445,0.19006720185279846,0.032652071778429,0.025470953691964462,0.019399573684478796,0.015071114645909427,0.012044398765734855
job_m_051_20bins_auto_p12_stats,0.7107946872711182,0.5042905807495117,0.35215961933135986,0.2537505030632019,0.18901313841342926,0.03259362265799876,0.025385616398350304,0.01931674824272289,0.015006870528450397,0.011994173641050562
job_m_051_20bins_auto_p14_stats,0.7092095017433167,0.5018457770347595,0.3499760329723358,0.25217708945274353,0.18784114718437195,0.03254240795102676,0.025293448012920793,0.019224514098773494,0.014935358170100166,0.011938283113904168
job_m_051_20bins_auto_p16_stats,0.7075448632240295,0.49923965334892273,0.34763771295547485,0.2504921853542328,0.18658609688282013,0.032488561341040105,0.0251950121374053,0.01912557694910303,0.014858685428488068,0.01187837757331698
job_m_051_20bins_auto_p18_stats,0.7084354162216187,0.49840685725212097,0.3465249240398407,0.24969038367271423,0.18598884344100952,0.03251737662847115,0.025163516124346908,0.019078432731452377,0.014822165039990854,0.011849850075759907
job_m_051_20bins_auto_p20_stats,0.7119648456573486,0.4993513822555542,0.3466404676437378,0.24977363646030426,0.18605086207389832,0.03263138988918281,0.025199236187147256,0.01908332965613286,0.014825958046137984,0.011852812952913435
job_m_051_20bins_auto_p22_stats,0.7193098068237305,0.5028640627861023,0.34854021668434143,0.2511425018310547,0.18707050383090973,0.03286770333038692,0.025331857569872655,0.01916378346994726,0.014888289950978817,0.011901505711821636
job_m_051_20bins_auto_p24_stats,0.735614001750946,0.512523353099823,0.3543740212917328,0.2553460896015167,0.19020166993141174,0.03338768943480957,0.02569475306089064,0.019410130378969895,0.015079305016044526,0.01205080321036851
job_m_051_20bins_auto_p26_stats,0.7550287842750549,0.5242754220962524,0.36158645153045654,0.2605430483818054,0.19407275319099426,0.03399874304655523,0.02613275289899784,0.019713211528517946,0.015314633500224271,0.01223490069893944
job_m_051_20bins_auto_p28_stats,0.7722276449203491,0.5344336032867432,0.36790767312049866,0.26509785652160645,0.19746552407741547,0.03453276947696223,0.026508259522931236,0.019977501513193534,0.015520135360550177,0.012395815610213027
job_m_051_20bins_auto_p30_stats,0.8010036945343018,0.5523459315299988,0.379518061876297,0.27346375584602356,0.2036971151828766,0.03541123642905914,0.027163497618533667,0.020459688464479844,0.015895769991726864,0.012690315919437926
job_m_051_20bins_auto_p32_stats,0.8347865343093872,0.5736218690872192,0.3934633135795593,0.28351208567619324,0.2111818939447403,0.03641905635360661,0.02793046682776271,0.02103333586079045,0.01634385801585088,0.01304223997617093
job_m_051_20bins_auto_p34_stats,0.8758841753005981,0.5983536839485168,0.4092681407928467,0.2949003279209137,0.21966473758220673,0.03761185530427115,0.028806832141460542,0.021676284648964022,0.016847650657553108,0.013438727900317169
job_m_051_20bins_auto_p36_stats,0.9351145029067993,0.6356186270713806,0.43379485607147217,0.3125731945037842,0.23282887041568756,0.03926911827047102,0.03009713534228199,0.022659111920543925,0.017621028595032256,0.014049080148361032
job_m_051_20bins_auto_p38_stats,1.000571608543396,0.6755567193031311,0.4596486985683441,0.33120232820510864,0.2467052936553955,0.04101963320359017,0.031440791263866966,0.023675776963395515,0.01842527498651649,0.014686008323902077
job_m_051_20bins_auto_p40_stats,1.0878607034683228,0.7292217016220093,0.4948587119579315,0.35657307505607605,0.2656034231185913,0.043229631161592,0.03318456992757947,0.02502910660619499,0.01950271239924605,0.01554290227184814
job_m_051_20bins_auto_p42_stats,1.1886872053146362,0.7870388627052307,0.5317044854164124,0.3831224739551544,0.28537946939468384,0.04561833588260359,0.034987251665630076,0.026407655155953526,0.020608532310355396,0.016426761124969307
job_m_051_20bins_auto_p44_stats,1.3365854024887085,0.8761802911758423,0.5892035961151123,0.4245538115501404,0.31624075770378113,0.048835346696032074,0.03762032001070422,0.02848448562854652,0.02229092348801267,0.017780248764730628
job_m_051_20bins_auto_p46_stats,1.5345938205718994,0.9977052807807922,0.6688287854194641,0.48192816972732544,0.35897764563560486,0.052679646823064655,0.04094469716672887,0.03121722880502598,0.02453624638700288,0.01960377277312065
job_m_051_20bins_auto_p48_stats,1.8610292673110962,1.200460433959961,0.8017753958702087,0.5777235627174377,0.4303334951400757,0.05809896490886238,0.0458864767994308,0.03543453892402993,0.028076931007657385,0.022521499968598705
job_m_051_20bins_auto_p50_stats,2.3205485343933105,1.4671099185943604,0.9749112725257874,0.7024775147438049,0.5232599973678589,0.06439630526464267,0.05142356104533518,0.040343244548111445,0.032324235929231414,0.026095059741188368
