job_m_054_20bins_auto_p00_stats,1.0042284727096558,0.7278960347175598,0.5148791074752808,0.37099888920783997,0.27634885907173157,0.04800591003233991,0.03820731577718424,0.02943666922650309,0.02282863752120738,0.018152485280329828
job_m_054_20bins_auto_p02_stats,0.9102776050567627,0.6575757265090942,0.46408453583717346,0.3343985974788666,0.24908612668514252,0.044857905228973934,0.03543792201187537,0.0271702039215216,0.021052495380594692,0.01675454980752224
job_m_054_20bins_auto_p04_stats,0.8455491065979004,0.6084414720535278,0.42840173840522766,0.30868715047836304,0.22993424534797668,0.04258196044572633,0.03343066659064606,0.025535198854823228,0.01978072825161522,0.015758486231991976
job_m_054_20bins_auto_p06_stats,0.809840202331543,0.5807691216468811,0.4080889821052551,0.2940506935119629,0.21903187036514282,0.0412873506505962,0.03227321465903024,0.0245883289750643,0.019047769163427247,0.015186242191197628
job_m_054_20bins_auto_p08_stats,0.7870521545410156,0.5627734661102295,0.3947576582431793,0.28444474935531616,0.21187660098075867,0.040446276914754914,0.031509876043199256,0.023960447210883536,0.01856314472659066,0.014808600758882523
job_m_054_20bins_auto_p10_stats,0.7772360444068909,0.5545200705528259,0.3884718418121338,0.279915452003479,0.20850282907485962,0.040080347021769235,0.03115694950833904,0.023662609531975815,0.018333649375580872,0.014629966575870094
job_m_054_20bins_auto_p12_stats,0.7765746712684631,0.5528686046600342,0.38684675097465515,0.27874448895454407,0.20763061940670013,0.040055612826103856,0.03108611531238826,0.023585421594212345,0.018274214214075282,0.014583725030998647
job_m_054_20bins_auto_p14_stats,0.7748995423316956,0.5502239465713501,0.3844314217567444,0.27700409293174744,0.20633423328399658,0.039992921092891334,0.030972531513177387,0.023470556919501253,0.018185797348049544,0.014514949623817426
job_m_054_20bins_auto_p16_stats,0.77424156665802,0.5479446649551392,0.38213828206062317,0.27535179257392883,0.20510345697402954,0.03996827873869151,0.03087449178325915,0.023361345519331878,0.018101768827152524,0.014449604561957239
job_m_054_20bins_auto_p18_stats,0.7810251116752625,0.5511072278022766,0.38375329971313477,0.27651548385620117,0.20597027242183685,0.040221858521797375,0.031010487556675587,0.023438277172192535,0.018160957744932267,0.014495631120791903
job_m_054_20bins_auto_p20_stats,0.7921129465103149,0.5569033622741699,0.3870560824871063,0.2788953185081482,0.20774295926094055,0.04063407809468859,0.03125904627842007,0.02359536866079813,0.018281872334973286,0.014589682283094927
job_m_054_20bins_auto_p22_stats,0.8104856014251709,0.5678181648254395,0.39393991231918335,0.28385549783706665,0.21143770217895508,0.04131100101506119,0.03172471423866934,0.02392176534365675,0.01853332386854273,0.014785382789505988
job_m_054_20bins_auto_p24_stats,0.8405927419662476,0.5869457721710205,0.40654808282852173,0.2929403781890869,0.2182048261165619,0.04240395406288805,0.03253327497196283,0.024516017670262808,0.01899189874661238,0.015142676638081031
job_m_054_20bins_auto_p26_stats,0.8774545788764954,0.6108320951461792,0.4220752716064453,0.30412858724594116,0.22653867304325104,0.04371503064985569,0.03352973846798662,0.025241558691142824,0.019553150072247862,0.015580667690842431
job_m_054_20bins_auto_p28_stats,0.91568523645401,0.6341525316238403,0.4371654987335205,0.3150019347667694,0.23463799059391022,0.04504401255343774,0.03448858363052034,0.025940084874098133,0.020094934923047005,0.016004202419727383
job_m_054_20bins_auto_p30_stats,0.9587109684944153,0.661130964756012,0.45431074500083923,0.3273560404777527,0.2438402771949768,0.04650316678555121,0.03558082489527454,0.026725921236182143,0.020706138527061713,0.01648287825052907
job_m_054_20bins_auto_p32_stats,1.0117136240005493,0.6940324306488037,0.4757341742515564,0.342792809009552,0.25533878803253174,0.048249088397131594,0.036888599573292574,0.027696282910805385,0.02146337942630451,0.017077226281776728
job_m_054_20bins_auto_p34_stats,1.0974178314208984,0.7512037754058838,0.5144014954566956,0.37065473198890686,0.276092529296875,0.050956585773092145,0.03909917910404651,0.029415685895482647,0.022812121198129896,0.018139449849090827
job_m_054_20bins_auto_p36_stats,1.1757615804672241,0.7992147207260132,0.5455087423324585,0.39306920766830444,0.292788565158844,0.053312658218326536,0.04089663899445531,0.03076956242418121,0.023880557024038393,0.018984256652731162
job_m_054_20bins_auto_p38_stats,1.274312138557434,0.8577713966369629,0.5828477144241333,0.4199739992618561,0.3128293752670288,0.056124812402674085,0.04301862443569029,0.03236084151668687,0.025143776445882608,0.01998697129664858
job_m_054_20bins_auto_p40_stats,1.4441107511520386,0.9693666696548462,0.658539891242981,0.4745144248008728,0.3534553050994873,0.0606055540480698,0.04685868648908651,0.0354767074819212,0.027641377308580514,0.021982253616584242
job_m_054_20bins_auto_p42_stats,1.6535382270812988,1.1005924940109253,0.7447938323020935,0.536665141582489,0.3997500240802765,0.06556828566389215,0.05105422108660401,0.038855174016834235,0.030387293682625473,0.024196180727031974
job_m_054_20bins_auto_p44_stats,1.8736933469772339,1.2370811700820923,0.8339274525642395,0.6008908748626709,0.44759035110473633,0.07021208680149658,0.055081619013052065,0.04216372065933122,0.03311679810408922,0.026418884053823446
job_m_054_20bins_auto_p46_stats,2.2716028690338135,1.4831515550613403,0.9945444464683533,0.7166243195533752,0.5337976217269897,0.0774250548502499,0.061575385778713694,0.047689656151145524,0.037771411783707104,0.03026289698734959
job_m_054_20bins_auto_p48_stats,2.8253016471862793,1.8118047714233398,1.201383352279663,0.8656631708145142,0.6448133587837219,0.08570909286886735,0.06896018468631374,0.054059627587886176,0.04329884642982577,0.03492235959252508
job_m_054_20bins_auto_p50_stats,3.9671266078948975,2.4515199661254883,1.6155383586883545,1.164084792137146,0.8671010732650757,0.09985743516712238,0.08029745466707704,0.06471008257917851,0.05296844417162003,0.043349758426837755
