job_m_007_cut_p00_setup_0N,1.779922366142273,1.2460473775863647,0.864303708076477,0.6227786540985107,0.4638940393924713,0.6169459819793701,0.0043333565198975564,0.0036225330885539587,0.0029194309098896274,0.002345938487098954,0.0018983811857318535,0.002330572751159424
job_m_007_cut_p00_setup_1N,1.7788738012313843,1.2446794509887695,0.862848699092865,0.6217302083969116,0.46311309933662415,0.6160051822662354,0.004332166638127619,0.0036203672723212036,0.002916314682210306,0.0023431821258564477,0.001896025570452724,0.0023280870431961666
job_m_007_cut_p00_setup_2N,1.8087921142578125,1.255922555923462,0.8673083186149597,0.6249436140060425,0.4655067026615143,0.6162624359130859,0.004365879761259212,0.0036381037663476535,0.002925854009779447,0.0023516222895460545,0.0019032405422604432,0.002328766939055093
job_m_007_cut_p57_setup_0C,1.6890569925308228,1.1772031784057617,0.8150702714920044,0.5873032212257385,0.4374691843986511,0.7916685938835144,0.0042278552361916825,0.003510746407796918,0.0028118512795883826,0.002251275233933344,0.0018177787090995622,0.002759135719970223
job_m_007_cut_p57_setup_1C,1.7122811079025269,1.1931513547897339,0.8257955312728882,0.5950313806533813,0.4432257115840912,0.7800227403640747,0.004255296264552087,0.00353715897531563,0.0028356666171389456,0.002272144779403779,0.001835495636641312,0.002732511337905123
job_m_007_cut_p57_setup_2C,1.7930004596710205,1.2411391735076904,0.8555354475975037,0.6164606213569641,0.45918789505958557,0.8184881210327148,0.004348145976909329,0.003614751847767355,0.0029005943122311817,0.0023292906207136544,0.0018841614068858656,0.0028194638984857623
