job_m_027_cut_p00_setup_0N,0.8002080917358398,0.5637239217758179,0.39204907417297363,0.28249305486679077,0.2104228287935257,0.6193243265151978,0.009233641843868313,0.007182082666817158,0.005456727680194511,0.004237972828736431,0.003381904629478004,0.007696391913707598
job_m_027_cut_p00_setup_1N,0.7880391478538513,0.5542975068092346,0.38500723242759705,0.27741900086402893,0.20664328336715698,0.613217294216156,0.009136380315543723,0.007092815495303633,0.0053812666157046,0.004179150292210223,0.003335768866122002,0.007640907954078459
job_m_027_cut_p00_setup_2N,0.815064013004303,0.5670442581176758,0.39120879769325256,0.28188759088516235,0.2099718302488327,0.6232348084449768,0.009351236178632937,0.007213380979702625,0.005447743426075322,0.004230965139313981,0.0033764060355002644,0.007731791121411005
job_m_027_cut_p65_setup_0C,0.6721771955490112,0.4690365791320801,0.32438403367996216,0.23373663425445557,0.17410525679588318,0.4394853115081787,0.00816647512204577,0.00625707792517128,0.004715442401518713,0.0036637235464921456,0.002933342559329528,0.005955140636823662
job_m_027_cut_p65_setup_1C,0.6774566173553467,0.4722672700881958,0.3262535035610199,0.2350836992263794,0.1751086562871933,0.41394928097724915,0.008212452801069801,0.0062896964531644175,0.004736414783138093,0.0036798624511377915,0.00294589403506918,0.005688964945443725
job_m_027_cut_p65_setup_2C,0.717877209186554,0.4954261779785156,0.3396330773830414,0.24472442269325256,0.18228980898857117,0.44758760929107666,0.00855872714642376,0.006521294856464937,0.004885685598235236,0.003794908732761228,0.0030354583449591116,0.006038570121449026
