job_m_042_cut_p00_setup_0N,0.9766979813575745,0.6960515379905701,0.48752105236053467,0.3512858748435974,0.26166510581970215,1.010769248008728,0.02159227622964854,0.016696626722186202,0.012622258456217717,0.00973944000829585,0.007741504313824384,0.02214433591079087
job_m_042_cut_p00_setup_1N,0.9507689476013184,0.6785671710968018,0.4753122925758362,0.3424888253211975,0.25511234998703003,0.994243860244751,0.021166257648819294,0.016369968274185877,0.012371272868028558,0.00954696637986531,0.007592154220610774,0.021877663357399157
job_m_042_cut_p00_setup_2N,0.9777390956878662,0.6870326995849609,0.4766157865524292,0.3434280455112457,0.2558119595050812,1.0230411291122437,0.021609275081943102,0.0165284604204894,0.012398137687874617,0.009567553243968945,0.007608121214145882,0.022341050759262588
job_m_042_cut_p16_setup_0C,0.9357599020004272,0.6583671569824219,0.4582495093345642,0.3301941156387329,0.24595430493354797,0.6827476024627686,0.020917302653834364,0.015989252630548696,0.012018109889184963,0.009276651479606992,0.007382667043614149,0.01644831253718725
job_m_042_cut_p16_setup_1C,0.8156244158744812,0.5749912858009338,0.4004330039024353,0.28853413462638855,0.214922696352005,0.7166269421577454,0.018860797700457343,0.01437946378237299,0.010800454359411973,0.008349203054463983,0.006666219877582887,0.017077648561662176
job_m_042_cut_p16_setup_2C,0.8573336601257324,0.5910918712615967,0.4060710668563843,0.2925966680049896,0.2179487943649292,0.7140263319015503,0.019587834827239123,0.014695205699959194,0.01092063595616563,0.008440431667138449,0.006736536922367701,0.01702969066727395
