job_m_051_cut_p00_setup_0N,0.86531662940979,0.6199501752853394,0.4354902505874634,0.3137948215007782,0.23373882472515106,0.5777238011360168,0.03730857001738515,0.02955897899494856,0.022726385120638216,0.01767411163120587,0.014091049196073315,0.02807693950812654
job_m_051_cut_p00_setup_1N,0.8455114960670471,0.6041042804718018,0.42333436012268066,0.3050358295440674,0.22721445560455322,0.5666784048080444,0.036733807313576096,0.029008295079823866,0.022242146799567344,0.01729243583971477,0.013789500879328566,0.027681503042294785
job_m_051_cut_p00_setup_2N,0.883929431438446,0.6249057054519653,0.4344497323036194,0.31304508447647095,0.23318035900592804,0.5832093954086304,0.03784118510417268,0.029729864239762614,0.022685107504587992,0.017641539248079464,0.01406529493067644,0.02827212035572487
job_m_051_cut_p14_setup_0C,0.7453853487968445,0.5242158770561218,0.36450567841529846,0.26264649629592896,0.19563958048820496,0.254676878452301,0.03369632711802668,0.02613054334224505,0.01983541952978528,0.015409622725572687,0.0123092638562991,0.015048935479870322
job_m_051_cut_p14_setup_1C,0.6987743377685547,0.490385502576828,0.34047359228134155,0.2453300654888153,0.1827409565448761,0.2700439989566803,0.03220375659456926,0.02485914497086858,0.018821375463993453,0.01462317901957701,0.011694494443326712,0.015742503832956174
job_m_051_cut_p14_setup_2C,0.7211145758628845,0.4977896511554718,0.34169232845306396,0.24620822072029114,0.18339507281780243,0.26166805624961853,0.03292557233618756,0.025140160976016818,0.01887324026260272,0.014663306255542583,0.011725812862432516,0.015365456067101485
