job_m_023_10bins_auto_sys,0.7829530835151672,0.549027144908905,0.38074105978012085,0.2743449807167053,0.20435352623462677,0.0075696199570559446,0.005916976966431104,0.004510896474642115,0.0035133692968104223,0.002806720235877193
job_m_023_10bins_sys,0.7783030867576599,0.5457906126976013,0.3785012364387512,0.27273109555244446,0.20315136015415192,0.007539796702120598,0.005891769994989474,0.004490805163015991,0.003497539302421372,0.002794216127704473
job_m_023_20bins_auto_sys,0.7720291018486023,0.5410383343696594,0.37507957220077515,0.2702655792236328,0.20131486654281616,0.007499376521946725,0.005854633587468931,0.004460039358902616,0.0034733144249217236,0.0027750897944501442
job_m_023_20bins_sys,0.7733206152915955,0.5421172976493835,0.37588703632354736,0.2708474099636078,0.20174825191497803,0.007507714178827207,0.005863078098004991,0.004467307652636232,0.0034790357225049427,0.0027796059856038135
