job_m_039_10bins_auto_sys,0.724500298500061,0.49794381856918335,0.34064781665802,0.24545559287071228,0.1828344464302063,0.014150724653126324,0.010515480144798925,0.007779954236238443,0.006034731126200655,0.004848216345526177
job_m_039_10bins_sys,0.7423047423362732,0.5091050267219543,0.34777209162712097,0.2505890429019928,0.18665824830532074,0.014421969527039722,0.010702804169932053,0.007907793122006916,0.006130628611622845,0.00492155983466925
job_m_039_20bins_auto_sys,0.7032407522201538,0.48409736156463623,0.3315243422985077,0.23888161778450012,0.17793764173984528,0.01382416336708942,0.01028186334799275,0.007615683401704233,0.005911622666478073,0.004754120944275831
job_m_039_20bins_sys,0.7221327424049377,0.49634987115859985,0.3395441472530365,0.24466034770011902,0.18224208056926727,0.014114502049188769,0.01048865634088641,0.0077601157025252625,0.006019856823067923,0.00483684384571154
